#Designed and coded by: Ditto

B38_early_internal = {
	slot = 1
	generic = no
	ai = yes
	potential = {
		tag = B38 #Elikhand
	}
	has_country_shield = yes
	
	B38_first_temple = {
		icon = mission_land_of_churches
		required_missions = {  }
		position = 1
		
		provinces_to_highlight = {
			is_capital = yes
			owned_by = ROOT
			NOT = { has_tax_building_trigger = yes }
			has_discovered = ROOT
		}
		
		trigger = {
			capital_scope = { has_tax_building_trigger = yes }
		}
		
		effect = {
			capital_scope = {
				add_base_tax = 2
				add_base_production = 2
				add_base_manpower = 2
			}
	    }
	}
	
	B38_new_breadbaskhet = {
		icon = prosperity_for_all
		required_missions = { B38_first_temple }
		position = 2
		
		provinces_to_highlight = {
			OR = {
				trade_goods = grain
				trade_goods = livestock
			}
			NOT = { owned_by = ROOT }
			OR = {
				superregion = escann_superregion
				area = cursewood_area
				area = whistlevale_area
			}
			has_discovered = ROOT
		}
		
		trigger = {
			calc_true_if = {
				all_owned_province = {
					OR = {
						trade_goods = grain
						trade_goods = livestock
					}
					is_state = yes
					OR = {
						superregion = escann_superregion
						area = cursewood_area
						area = whistlevale_area
					}
				}
				amount = 3
			}
			treasury = 100
		}
		
		effect = {
			add_treasury = -100
			custom_tooltip = elikhand_graint
			hidden_effect = {
				if = {
					limit = {
						NOT = {
							calc_true_if = {
								all_owned_province = {
									trade_goods = grain
									is_state = yes
									OR = {
										superregion = escann_superregion
										area = cursewood_area
										area = whistlevale_area
									}
								}
								amount = 3
							}
						}
						calc_true_if = {
							all_owned_province = {
								trade_goods = livestock
								is_state = yes
								OR = {
									superregion = escann_superregion
									area = cursewood_area
									area = whistlevale_area
								}
							}
							amount = 5
						}
					}
					random_owned_province = {
						limit = {
							trade_goods = livestock
							is_state = yes
							OR = {
								superregion = escann_superregion
								area = cursewood_area
								area = whistlevale_area
							}
						}
						change_trade_goods = grain
					}
				}
				random_owned_province = {
					limit = {
						trade_goods = grain
						is_state = yes
						OR = {
							superregion = escann_superregion
							area = cursewood_area
							area = whistlevale_area
						}
						NOT = { has_province_flag = elikhand_grain }
					}
					add_base_tax = 2
					add_base_production = 2
					add_base_manpower = 1
					set_province_flag = elikhand_grain
				}
				random_owned_province = {
					limit = {
						trade_goods = grain
						is_state = yes
						OR = {
							superregion = escann_superregion
							area = cursewood_area
							area = whistlevale_area
						}
						NOT = { has_province_flag = elikhand_grain }
					}
					add_base_tax = 2
					add_base_production = 2
					add_base_manpower = 1
					set_province_flag = elikhand_grain
				}
				random_owned_province = {
					limit = {
						trade_goods = grain
						is_state = yes
						OR = {
							superregion = escann_superregion
							area = cursewood_area
							area = whistlevale_area
						}
						NOT = { has_province_flag = elikhand_grain }
					}
					add_base_tax = 2
					add_base_production = 2
					add_base_manpower = 1
					set_province_flag = elikhand_grain
				}
			}
	    }
	}
	
	B38_access_jewlery = {
		icon = defender_of_the_faith
		required_missions = { B38_new_breadbaskhet B38_import_cotton }
		position = 3
		
		provinces_to_highlight = {
			OR = {
				NOT = { development = 6 }
				NOT = { owned_by = ROOT }
				NOT = { is_state = yes }
			}
			OR = {
				trade_goods = gems
				trade_goods = gold
			}
			OR = {
				superregion = escann_superregion
				area = cursewood_area
				area = whistlevale_area
			}
			has_discovered = ROOT
		}
		
		trigger = {
			OR = {
				any_owned_province = {
					OR = {
						trade_goods = gems
						trade_goods = gold
					}
					development = 6
					is_state = yes
					OR = {
						superregion = escann_superregion
						area = cursewood_area
						area = whistlevale_area
					}
				}
				custom_trigger_tooltip = {
					tooltip = elikhand_no_gems
					AND = {
						num_of_provinces_in_states = 20
						NOT = {	
							any_owned_province = {
								OR = {
									trade_goods = gems
									trade_goods = gold
								}
								is_state = yes
								OR = {
									superregion = escann_superregion
									area = cursewood_area
									area = whistlevale_area
								}
							}
						}
						any_owned_province = {
							development = 15
							is_state = yes
							NOT = { trade_goods = cotton }
							OR = {
								superregion = escann_superregion
								area = cursewood_area
								area = whistlevale_area
							}
						}
					}
				}
			}
			dip_power = 50
		}
		
		effect = {
			add_dip_power = -50
			if = {
				limit = {
					num_of_provinces_in_states = 20
					NOT = {	
						any_owned_province = {
							OR = {
								trade_goods = gems
								trade_goods = gold
							}
							is_state = yes
							OR = {
								superregion = escann_superregion
								area = cursewood_area
								area = whistlevale_area
							}
						}
					}
					any_owned_province = {
						development = 15
						is_state = yes
						NOT = { trade_goods = cotton }
						OR = {
							superregion = escann_superregion
							area = cursewood_area
							area = whistlevale_area
						}
					}
				}
				custom_tooltip = elikhand_jewelt2
			}
			else = {
				custom_tooltip = elikhand_jewelt
			}
			hidden_effect = {
				if = {
					limit = {
						num_of_provinces_in_states = 20
						NOT = {	
							any_owned_province = {
								OR = {
									trade_goods = gems
									trade_goods = gold
								}
								is_state = yes
								OR = {
									superregion = escann_superregion
									area = cursewood_area
									area = whistlevale_area
								}
							}
						}
						any_owned_province = {
							development = 15
							is_state = yes
							NOT = { trade_goods = cotton }
							OR = {
								superregion = escann_superregion
								area = cursewood_area
								area = whistlevale_area
							}
						}
					}
					random_owned_province = {
						limit = {
							NOT = {
								OR = {
									trade_goods = gems
									trade_goods = gold
								}
							}
							development = 15
							is_state = yes
							NOT = { trade_goods = cotton }
							OR = {
								superregion = escann_superregion
								area = cursewood_area
								area = whistlevale_area
							}
							NOT = { has_province_flag = elikhand_jewel }
						}
						change_trade_goods = gems
						add_base_tax = 1
						add_base_production = 2
						add_base_manpower = 1
						set_province_flag = elikhand_jewel
					}
				}
				else = {
					random_owned_province = {
						limit = {
							OR = {
								trade_goods = gems
								trade_goods = gold
							}
							is_state = yes
							OR = {
								superregion = escann_superregion
								area = cursewood_area
								area = whistlevale_area
							}
							NOT = { has_province_flag = elikhand_jewel }
						}
						add_base_tax = 1
						add_base_production = 2
						add_base_manpower = 1
						set_province_flag = elikhand_jewel
					}
					random_owned_province = {
						limit = {
							trade_goods = grain
							is_state = yes
							OR = {
								superregion = escann_superregion
								area = cursewood_area
								area = whistlevale_area
							}
							NOT = { has_province_flag = elikhand_jewel }
						}
						add_base_tax = 1
						add_base_production = 2
						add_base_manpower = 1
						set_province_flag = elikhand_jewel
					}
					random_owned_province = {
						limit = {
							trade_goods = grain
							is_state = yes
							OR = {
								superregion = escann_superregion
								area = cursewood_area
								area = whistlevale_area
							}
							NOT = { has_province_flag = elikhand_jewel }
						}
						add_base_tax = 1
						add_base_production = 2
						add_base_manpower = 1
						set_province_flag = elikhand_jewel
					}
				}
			}
	    }
	}
	
	B38_magic_under = {
		icon = mission_magic_tower
		required_missions = { B38_access_jewlery }
		position = 4
		
		trigger = {
			estate_loyalty = { estate = estate_mages loyalty = 50 }
			num_of_estate_privileges = {
				estate = estate_mages
				value = 2
			}
			stability = 2
			OR = {
				adm_power = 150
				ruler_has_mage_personality = yes
			}
		}
		
		effect = {
			if = {
				limit = { NOT = { ruler_has_mage_personality = yes } }
				add_adm_power = -150
			}
			add_estate_loyalty = { estate = estate_burghers loyalty = 15 }
			set_country_flag = elikhand_magic_khet
			clear_mages_organization_effect = yes
			set_estate_privilege = estate_mages_organization_religious
	    }
	}
	
	B38_build_bazaars = {
		icon = mission_guarded_market
		required_missions = { B38_revitalization }
		position = 5
		
		provinces_to_highlight = {
			province_has_center_of_trade_of_level = 1
			OR = {
				NOT = { has_trade_building_trigger = yes }
				NOT = { province_has_center_of_trade_of_level = 2 }
			}
			owned_by = ROOT
			has_discovered = ROOT
		}
		
		trigger = {
			calc_true_if = {
				all_owned_province = {
					province_has_center_of_trade_of_level = 2
					has_trade_building_trigger = yes
					is_state = yes
					OR = {
						superregion = escann_superregion
						area = cursewood_area
						area = whistlevale_area
					}
				}
				amount = 4
			}
		}
		
		effect = {
			add_mercantilism = 3
			custom_tooltip = elikhand_bazaart
			hidden_effect = {
				random_owned_province = {
					limit = {
						province_has_center_of_trade_of_level = 2
						has_trade_building_trigger = yes
						is_state = yes
						OR = {
							superregion = escann_superregion
							area = cursewood_area
							area = whistlevale_area
						}
						NOT = { has_province_flag = elikhand_bazaar }
					}
					add_base_production = 1
					set_province_flag = elikhand_bazaar
				}
				random_owned_province = {
					limit = {
						province_has_center_of_trade_of_level = 2
						has_trade_building_trigger = yes
						is_state = yes
						OR = {
							superregion = escann_superregion
							area = cursewood_area
							area = whistlevale_area
						}
						NOT = { has_province_flag = elikhand_bazaar }
					}
					add_base_production = 1
					set_province_flag = elikhand_bazaar
				}
				random_owned_province = {
					limit = {
						province_has_center_of_trade_of_level = 2
						has_trade_building_trigger = yes
						is_state = yes
						OR = {
							superregion = escann_superregion
							area = cursewood_area
							area = whistlevale_area
						}
						NOT = { has_province_flag = elikhand_bazaar }
					}
					add_base_production = 1
					set_province_flag = elikhand_bazaar
				}
				random_owned_province = {
					limit = {
						province_has_center_of_trade_of_level = 2
						has_trade_building_trigger = yes
						is_state = yes
						OR = {
							superregion = escann_superregion
							area = cursewood_area
							area = whistlevale_area
						}
						NOT = { has_province_flag = elikhand_bazaar }
					}
					add_base_production = 1
					set_province_flag = elikhand_bazaar
				}
				random_owned_province = {
					limit = {
						province_has_center_of_trade_of_level = 2
						has_trade_building_trigger = yes
						is_state = yes
						OR = {
							superregion = escann_superregion
							area = cursewood_area
							area = whistlevale_area
						}
						NOT = { has_province_flag = elikhand_bazaar }
					}
					add_base_production = 1
					set_province_flag = elikhand_bazaar
				}
			}
			add_country_modifier = {
				name = elikhand_bazaars
				duration = 9125
			}
	    }
	}
	
	B38_shorter_greenfolk = {
		icon = mission_discussion_arch
		required_missions = { B38_build_bazaars }
		position = 6
		
		provinces_to_highlight = {
			owned_by = ROOT
			OR = {
				culture_group = goblin
			}
			has_discovered = ROOT
		}
		
		trigger = {
			if = {
				limit = { has_country_flag = b38_hate_greens }
				OR = {
					has_country_modifier = racial_pop_goblin_expulsion
					has_country_modifier = racial_pop_goblin_purge
				}
			}
			else_if = {
				limit = { has_country_flag = b38_love_greens }
				any_owned_province = {
					has_owner_accepted_culture = yes
					culture_group = goblin
				}
			}
			else = {
				custom_trigger_tooltip = { tooltip = b38_green_trig }
			}
		}
		
		effect = {
			if = {
				limit = { has_country_flag = b38_hate_greens }
				add_mil_power = 50
				add_estate_loyalty = { estate = estate_adventurers loyalty = 15 }
			}
			else_if = {
				limit = { has_country_flag = b38_love_greens }
				medium_increase_of_goblin_tolerance_effect = yes
				random_owned_province = {
					limit = {
						has_owner_accepted_culture = yes
						culture_group = goblin
					}
					add_base_tax = 1
					add_base_manpower = 2
				}
			}
			else = {
				custom_tooltip = b38_green_effect
			}
	    }
	}
}

B38_khetist_expansion = {
	slot = 1
	generic = no
	ai = yes
	potential = {
		tag = B38 #Elikhand
	}
	has_country_shield = yes
	
	B38_elikhets_war = {
		icon = mission_swear_fealty_knight
		required_missions = { B38_false_god }
		position = 7
		
		provinces_to_highlight = {
			owner = { religion = corinite }
			OR = {
				region = inner_castanor_region
				region = south_castanor_region
				region = west_castanor_region
				area = cursewood_area
				area = whistlevale_area
			}
			has_discovered = ROOT
		}
		
		trigger = {
			custom_trigger_tooltip = {
				tooltip = elikhand_crimson
				OR = {
					has_global_flag = crimson_deluge
					has_global_flag = crimson_deluge_is_actively_happening
					has_global_flag = crimson_deluge_is_over
				}
			}
			custom_trigger_tooltip = {
				tooltip = elikhand_holy_war
				OR = {
					any_country = {  
						capital_scope = { 
							OR = {
								region = inner_castanor_region
								region = south_castanor_region
								region = west_castanor_region
								area = cursewood_area
								area = whistlevale_area
							}
						}
						religion = corinite
						B38 = {
							war_score_against = {
								who = PREV
								value = 75
							}
						}
					}
					NOT = {
						any_country = {
							capital_scope = { 
								OR = {
									region = inner_castanor_region
									region = south_castanor_region
									region = west_castanor_region
									area = cursewood_area
									area = whistlevale_area
								}
							}
							religion = corinite 
						}
					}
				}
			}
		}
		
		effect = {
			add_country_modifier = {
				name = elikhand_divine_0
				duration = 7300
			}
	    }
	}
	
	B38_corin_bleed = {
		icon = mission_burning_witch
		required_missions = { B38_elikhets_war B38_common_cause }
		position = 8
		
		provinces_to_highlight = {
			is_reformation_center = yes
			religion = corinite
			OR = {
				region = inner_castanor_region
				region = south_castanor_region
				region = west_castanor_region
				area = cursewood_area
				area = whistlevale_area
			}
			has_discovered = ROOT
		}
		
		trigger = {
			religion = dalcabba
			OR = {
				custom_trigger_tooltip = {
					tooltip = elikhand_dal_center
					any_province = {
						owner = { religion = dalcabba }
						is_reformation_center = yes
						religion = corinite
					}
				}
				custom_trigger_tooltip = {
					tooltip = elikhand_no_reform
					all_province = {
						NOT = {
							AND = {
								OR = {
									region = inner_castanor_region
									region = south_castanor_region
									region = west_castanor_region
									area = cursewood_area
									area = whistlevale_area
								}
								is_reformation_center = yes
								religion = corinite
							}
						}
					}
				}
			}
		}
		
		effect = {
			elikhand_divine_war = yes
			custom_tooltip = elikhand_lose_devestation_castanor
			hidden_effect = {
				every_owned_province = {
					limit = {
						OR = {
							region = west_castanor_region
							region = inner_castanor_region
							region = south_castanor_region
						}
					}
					add_devastation = -20
				}
			}
	    }
	}
	
	B38_show_path = {
		icon = crush_heretic_strongholds
		required_missions = { B38_corin_bleed }
		position = 9
		
		provinces_to_highlight = {
			owner = {
				is_neighbor_of = ROOT
				NOT = { religion = dalcabba }
			}
			has_discovered = ROOT
		}
		
		trigger = {
			calc_true_if = {
				all_neighbor_country = {
					religion = dalcabba
					OR = {
						is_subject = no
						total_development = 50
					}
				}
				amount = 3
			}
		}
		
		effect = {
			elikhand_divine_war = yes
			add_splendor = 400
			tooltip = {
				add_country_modifier = {
					name = elikhand_dalcabban_path
					duration = 1
				}
			}
			custom_tooltip = elikhand_path
			hidden_effect = {
				every_country = {
					limit = {
						NOT = { tag = ROOT }
						religion = dalcabba
					}
					add_country_modifier = {
						name = elikhand_dalcabban_path
						duration = 7300
					}
				}
			}
	    }
	}
	
	B38_khetist_enlightenment = {
		icon = mission_women_prayer
		required_missions = { B38_show_path }
		position = 10
		
		provinces_to_highlight = {
			owner = {
				NOT = { religion = dalcabba }
				capital_scope = { continent = europe }
			}
			has_discovered = ROOT
		}
		
		trigger = {
			calc_true_if = {
				all_known_country = {
					religion = dalcabba
					capital_scope = { continent = europe }
					OR = {
						is_subject = no
						total_development = 60
					}
				}
				amount = 6
			}
		}
		
		effect = {
			elikhand_divine_war = yes
			dalcabba_surge = yes
			custom_tooltip = dalcabban_holy_war
	    }
	}
	
	B38_new_brethren = {
		icon = mission_confrontation
		required_missions = { B38_khetist_enlightenment B38_grand_university }
		position = 11
		
		provinces_to_highlight = {
			owner = {
				religion = dalcabba
				NOT = { is_subject = yes }
				NOT = { has_opinion = { who = ROOT value = 100 } }
			}
			has_discovered = ROOT
		}
		
		trigger = {
			calc_true_if = {
				all_known_country = {
					religion = dalcabba
					NOT = { is_subject = yes }
					has_opinion = { who = ROOT value = 100 }
				}
				amount = 3
			}
		}
		
		effect = {
			add_country_modifier = {
				name = elikhand_followers
				duration = 7300
			}
			custom_tooltip = elikhand_forgiveness
			hidden_effect = {
				every_known_country = {
					limit = {
						religion = dalcabba
					}
					remove_opinion = {
						who = ROOT
						modifier = declared_war_on_us
					}
					remove_opinion = {
						who = ROOT
						modifier = had_war_with_us
					}
				}
			}
	    }
	}
	
	B38_elikhander_legions = {
		icon = mission_assemble_an_army
		required_missions = { B38_new_brethren B38_escanni_wars }
		position = 12
		
		trigger = {
			army_size = 120
			if = {
				limit = { has_dlc = "Cradle of Civilization" }
				army_professionalism = 0.6
			}
			else = { army_tradition = 50 }
			employed_advisor = {
				category = MIL
			}
			NOT = {
				employed_advisor = {
					category = MIL
					culture = kheteratan
				}
			}
			NOT = {
				employed_advisor = {
					category = MIL
					culture = elikhander
				}
			}
			mil_power = 200
		}
		
		effect = {
			add_mil_power = -200
			add_army_professionalism = 0.05
			add_country_modifier = {
				name = elikhander_cannor
				duration = -1
			}
	    }
	}
	
	B38_sole_divinity = {
		icon = restore_the_hospitallers
		required_missions = { B38_elikhander_legions }
		position = 13
		
		provinces_to_highlight = {
			religion = ravelian
			has_discovered = ROOT
		}
		
		trigger = {
			is_religion_enabled = ravelian
			OR = {
				num_of_owned_provinces_with = {
					value = 5
					religion = ravelian
				}
				employed_advisor = {
					religion = ravelian
				}
			}
			religion = dalcabba
		}
		
		effect = {
			country_event = { id = flavor_elikhand.12 }
	    }
	}
	
	B38_pantheon_weakened = {
		icon = sway_the_pope
		required_missions = { B38_sole_divinity B38_claim_victory }
		position = 14
		
		provinces_to_highlight = {
			continent = europe
			owner = { NOT = { religion = dalcabba } }
			has_discovered = ROOT
		}
		
		trigger = {
			calc_true_if = {
				all_province = {
					owner = { religion = dalcabba }
					continent = europe
				}
				amount = 300
			}
			any_ally = { religion = dalcabba }
		}
		
		effect = {
			elikhand_divine_war = yes
			dalcabba_surge = yes
	    }
	}
	
	B38_cannor_khetist = {
		icon = mission_restore_caliphate_of_cordoba
		required_missions = { B38_pantheon_weakened }
		position = 15
		
		provinces_to_highlight = {
			continent = europe
			owner = { 
				NOT = { religion = dalcabba }
				total_development = 200
				NOT = { total_development = 500 }
				capital_scope = { continent = europe }
			}
			has_discovered = ROOT
		}
		
		trigger = {
			custom_trigger_tooltip = {
				tooltip = elikhand_cannor_dal
				all_country = {  
					OR = {
						religion = dalcabba
						is_subject = yes
						NOT = { capital_scope = { continent = europe } }
						NOT = { total_development = 200 }
						total_development = 500
					}
				}
			}
			calc_true_if = {
				all_known_country = {
					religion = dalcabba
					capital_scope = { continent = europe }
				}
				amount = 15
			}
		}
		
		effect = {
			hidden_effect = { elikhand_divine_war = yes } #Removes
			custom_tooltip = elikhand_divine_loss
			add_country_modifier = {
				name = elikhand_divine_5
				duration = -1
			}
			dalcabba_surge = yes
	    }
	}
}

B38_early_khet = {
	slot = 2
	generic = no
	ai = yes
	potential = {
		tag = B38 #Elikhand
	}
	has_country_shield = yes
	
	B38_contact_khetarch = {
		icon = prester_john
		required_missions = {  }
		position = 1
		
		provinces_to_highlight = {
			owned_by = U01 #Kheterata
		}
		
		trigger = {
			if = {
				limit = {
					U01 = { exists = yes }
					north_salahad_region = { owned_by = U01 }
				}
				reverse_has_opinion = { who = U01 value = 100 }
			}
			else = {
				dip_power = 50
			}
		}
		
		effect = {
			if = {
				limit = {
					OR = {
						NOT = { U01 = { exists = yes } }
						NOT = { north_salahad_region = { owned_by = U01 } }
					}
				}
				add_dip_power = -50
			}
			add_country_modifier = {
				name = elikhand_homeland_influx
				duration = 7300
			}
			add_historical_friend = U01
			U01 = { add_historical_friend = FROM }
	    }
	}
	
	B38_import_cotton = {
		icon = mission_desert_pilgrim
		required_missions = { B38_first_temple B38_contact_khetarch }
		position = 2
		
		provinces_to_highlight = {
			has_terrain = farmlands
			OR = {
				NOT = { owned_by = ROOT }
				NOT = { is_state = yes }
				NOT = { development = 10 }
			}
			OR = {
				superregion = escann_superregion
				area = cursewood_area
				area = whistlevale_area
			}
			has_discovered = ROOT
		}
		
		trigger = {
			has_institution = renaissance
			any_owned_province = {
				has_terrain = farmlands
				development = 10
				is_state = yes
				NOT = {
					OR = {
						trade_goods = gems
						trade_goods = gold
					}
				}
				OR = {
					superregion = escann_superregion
					area = cursewood_area
					area = whistlevale_area
				}
			}
		}
		
		effect = {
			if = {
				limit = {
					NOT = { 
						any_owned_province = {
							has_terrain = farmlands
							development = 10
							is_state = yes
							NOT = {
								OR = {
									trade_goods = gems
									trade_goods = gold
								}
							}
							OR = {
								superregion = escann_superregion
								area = cursewood_area
								area = whistlevale_area
							}
						}
					}
				}
				custom_tooltip = elikhand_cotton
			}
			else = {
				random_owned_province = {
					limit = {
						has_terrain = farmlands
						development = 10
						is_state = yes
						NOT = {
							OR = {
								trade_goods = gems
								trade_goods = gold
							}
						}
						OR = {
							superregion = escann_superregion
							area = cursewood_area
							area = whistlevale_area
						}
					}
					change_trade_goods = cotton
					add_base_tax = 1
					add_base_production = 1
					add_base_manpower = 1
				}
			}
			add_estate_loyalty = { estate = estate_burghers loyalty = 15 }
			if = {
				limit = { U01 = { NOT = { has_institution = renaissance } } }
				U01 = {
					capital_scope = {
						add_institution_embracement = {
							which = "renaissance"
							value = 75
						}
					}
				}
			}
	    }
	}
	
	B38_establish_contacts = {
		icon = mission_feast
		required_missions = { B38_import_cotton B38_land_peoples }
		position = 3
		
		trigger = {
			num_of_allies = 3
			any_ally = {
				NOT = {
					capital_scope = { superregion = escann_superregion }
				}
			}
		}
		
		effect = {
			add_country_modifier = {
				name = elikhand_contacts
				duration = 10950
			}
			if = { #Serious AE reduction to offset unique penalty for being a heathen.
				limit = {
					NOT = { is_year = 1510 }
				}
				custom_tooltip = elikhand_foreignt
				add_country_modifier = {
					name = elikhand_foreigner
					duration = 10950
				}
			}
	    }
	}
	
	B38_revitalization = {
		icon = mission_green_village
		required_missions = { B38_access_jewlery B38_land_monsters }
		position = 4
		
		provinces_to_highlight = {
			owned_by = ROOT
			NOT = { development = 10 }
			OR = {
				superregion = escann_superregion
				area = cursewood_area
				area = whistlevale_area
			}
			has_discovered = ROOT
		}
		
		trigger = {
			calc_true_if = {
				all_owned_province = {
					development = 10
					is_state = yes
					OR = {
						superregion = escann_superregion
						area = cursewood_area
						area = whistlevale_area
					}
				}
				amount = 10
			}
			treasury = 100
			adm_power = 100
		}
		
		effect = {
			add_treasury = -100
			add_adm_power = -100
			custom_tooltip = elikhand_revitalizet
			hidden_effect = {
				random_owned_province = {
					limit = {
						is_state = yes
						OR = {
							superregion = escann_superregion
							area = cursewood_area
							area = whistlevale_area
						}
						NOT = { has_province_flag = elikhand_revitalize }
					}
					add_base_tax = 1
					set_province_flag = elikhand_revitalize
				}
				random_owned_province = {
					limit = {
						is_state = yes
						OR = {
							superregion = escann_superregion
							area = cursewood_area
							area = whistlevale_area
						}
						NOT = { has_province_flag = elikhand_revitalize }
					}
					add_base_tax = 1
					set_province_flag = elikhand_revitalize
				}
				random_owned_province = {
					limit = {
						is_state = yes
						OR = {
							superregion = escann_superregion
							area = cursewood_area
							area = whistlevale_area
						}
						NOT = { has_province_flag = elikhand_revitalize }
					}
					add_base_production = 1
					set_province_flag = elikhand_revitalize
				}
				random_owned_province = {
					limit = {
						is_state = yes
						OR = {
							superregion = escann_superregion
							area = cursewood_area
							area = whistlevale_area
						}
						NOT = { has_province_flag = elikhand_revitalize }
					}
					add_base_production = 1
					set_province_flag = elikhand_revitalize
				}
				random_owned_province = {
					limit = {
						is_state = yes
						OR = {
							superregion = escann_superregion
							area = cursewood_area
							area = whistlevale_area
						}
						NOT = { has_province_flag = elikhand_revitalize }
					}
					add_base_manpower = 1
					set_province_flag = elikhand_revitalize
				}
				random_owned_province = {
					limit = {
						is_state = yes
						OR = {
							superregion = escann_superregion
							area = cursewood_area
							area = whistlevale_area
						}
						NOT = { has_province_flag = elikhand_revitalize }
					}
					add_base_manpower = 1
					set_province_flag = elikhand_revitalize
				}
			}
			add_country_modifier = {
				name = elikhand_revitalizing
				duration = 12775
			}
	    }
	}
	
	B38_divine_will = {
		icon = mission_priest_church
		required_missions = { B38_revitalization }
		position = 5
		
		trigger = {
			religious_ideas = 1
			NOT = { corruption = 0.01 }
		}
		
		effect = {
			if = {
				limit = {
					religious_ideas = 7
				}
				add_stability_or_adm_power = yes
			}
			else_if = {
				limit = {
					religious_ideas = 6
				}
				add_idea = deus_vult
			}
			else_if = {
				limit = {
					religious_ideas = 5
				}
				add_idea = inquisition
			}
			else_if = {
				limit = {
					religious_ideas = 4
				}
				add_idea = religious_tradition
			}
			else_if = {
				limit = {
					religious_ideas = 3
				}
				add_idea = devoutness
			}
			else_if = {
				limit = {
					religious_ideas = 2
				}
				add_idea = divine_supremacy
			}
			else_if = {
				limit = {
					religious_ideas = 1
				}
				add_idea = church_attendance_duty
			}
			else = {
				custom_tooltip = elikhand_church_duty
			}
			define_advisor = {
				type = inquisitor
				name = "Hyaclos Akhaat"
				skill = 3
				cost_multiplier = 0.25
			}
	    }
	}
}

B38_escann = {
	slot = 2
	generic = no
	ai = yes
	potential = {
		tag = B38 #Elikhand
	}
	has_country_shield = yes
	
	B38_false_god = {
		icon = mission_sun_temple
		required_missions = { B38_escann_khetist }
		position = 6
		
		provinces_to_highlight = {
			religion = corinite
			has_discovered = ROOT
		}
		
		trigger = {
			is_religion_enabled = corinite
			inquisitor = 2
		}
		
		effect = {
			add_prestige = 15
			country_event = { id = flavor_elikhand.3 }
	    }
	}
	
	B38_common_cause = {
		icon = mission_heated_battle
		required_missions = { B38_false_god B38_visit_kheterata }
		position = 7
		
		provinces_to_highlight = {
			owner = {
				is_subject_of = ROOT
				NOT = { religion = dalcabba }
			}
			has_discovered = ROOT
		}
		
		trigger = {
			if = {
				limit = { has_country_flag = b38_hate_greens }
				dip_power = 100
				custom_trigger_tooltip = {
					tooltip = elikhand_human_subject
					any_subject_country = {
						total_development = 25
						NOT = { religion = dalcabba }
						any_country = {
							OR = {
								has_country_modifier = orcish_administration
								has_country_modifier = goblin_administration
							}
							war_with = PREV
						}
					}
				}
			}
			else_if = {
				limit = { has_country_flag = b38_love_greens }
				dip_power = 100
				custom_trigger_tooltip = {
					tooltip = elikhand_orc_subject
					any_subject_country = {
						total_development = 25
						NOT = { religion = dalcabba }
						OR = {
							has_country_modifier = orcish_administration
							has_country_modifier = goblin_administration
						}
					}
				}
			}
			else = {
				custom_trigger_tooltip = { tooltip = b38_green_trig }
			}
		}
		
		effect = {
			if = {
				limit = { has_country_flag = b38_hate_greens }
				add_dip_power = -100
				custom_tooltip = elikhand_sub_convert
				random_subject_country = {
					limit = {
						total_development = 25
						NOT = { religion = dalcabba }
						any_country = {
							OR = {
								has_country_modifier = orcish_administration
								has_country_modifier = goblin_administration
							}
							war_with = PREV
						}
					}
					change_religion = dalcabba
					capital_scope = { change_religion = dalcabba }
				}
			}
			else_if = {
				limit = { has_country_flag = b38_love_greens }
				add_dip_power = -100
				custom_tooltip = elikhand_sub_convert
				random_subject_country = {
					limit = {
						total_development = 25
						NOT = { religion = dalcabba }
						OR = {
							has_country_modifier = orcish_administration
							has_country_modifier = goblin_administration
						}
					}
					change_religion = dalcabba
					capital_scope = { change_religion = dalcabba }
				}
			}
			else = {
				custom_tooltip = b38_green_effect
			}
	    }
	}
	
	B38_role_orcs = {
		icon = mission_thinking_king
		required_missions = { B38_common_cause }
		position = 8
		
		provinces_to_highlight = {
			owned_by = ROOT
			OR = { 
				has_orcish_majority_trigger = yes
				has_orcish_minority_trigger = yes
			}
			has_discovered = ROOT
		}
		
		trigger = {
			if = {
				limit = { has_country_flag = b38_hate_greens }
				all_owned_province = { 
					NOT = {
						has_orcish_majority_trigger = yes
						has_orcish_minority_trigger = yes
					}
				}
			}
			else_if = {
				limit = { has_country_flag = b38_love_greens }
				all_owned_province = {
					OR = {
						NOT = {
							has_orcish_majority_trigger = yes
							has_orcish_minority_trigger = yes
						}
						religion = dalcabba
					}
				}
				calc_true_if = {
					all_owned_province = {
						has_orcish_majority_trigger = yes
						religion = dalcabba
					}
					amount = 5
				}
			}
			else = {
				custom_trigger_tooltip = { tooltip = b38_green_trig }
			}
		}
		
		effect = {
			if = {
				limit = { has_country_flag = b38_hate_greens }
				add_country_modifier = {
					name = elikhand_prohuman
					duration = 10950
				}
			}
			else_if = {
				limit = { has_country_flag = b38_love_greens }
				add_country_modifier = {
					name = elikhand_tolerance
					duration = 10950
				}
			}
			else = {
				custom_tooltip = b38_green_effect
			}
	    }
	}
	
	B38_gather_works = {
		icon = found_the_vatican_library
		required_missions = { B38_corin_bleed B38_mage_war }
		position = 9
		
		provinces_to_highlight = {
			province_id = 475
			has_discovered = ROOT
		}
		
		trigger = {
			if = {
				limit = { 
					U01 = { exists = yes }
					north_salahad_region = { owned_by = U01 }
				}
				reverse_has_opinion = { who = U01 value = 150 }
			}
			else = {
				475 = {
					owner = { has_opinion = { who = ROOT value = 100 } }
				}
			}
			has_institution = printing_press
			is_at_war = no
			dip_power = 75
		}
		
		effect = {
			add_dip_power = -75
			if = {
				limit = { 
					U01 = { NOT = { has_institution = printing_press } } 
					north_salahad_region = { owned_by = U01 }
				}
				U01 = {
					capital_scope = {
						add_institution_embracement = {
							which = "printing_press"
							value = 75
						}
					}
				}
			}
			add_country_modifier = {
				name = elikhand_knowledge
				duration = 3650
			}
		}
	}
	
	B38_grand_university = {
		icon = pontifical_universities
		required_missions = { B38_gather_works }
		position = 10
		
		provinces_to_highlight = {
			owned_by = ROOT
			is_capital = yes
			NOT = { development = 35 }
			has_discovered = ROOT
		}
		
		trigger = {
			capital_scope = { development = 35 }
			estate_loyalty = { estate = estate_mages loyalty = 60 }
			OR = {
				ruler_has_mage_personality = yes
				court_mage = 2
			}
			NOT = { has_country_modifier = elikhand_knowledge }
			adm_power = 100
		}
		
		effect = {
			add_adm_power = -100
			if = {
				limit = { NOT = { capital_scope = { has_building = university } } }
				capital_scope = { add_building = university }
			}
			else = {
				change_innovativeness = 5
			}
			add_prestige = 10
	    }
	}
	
	B38_escanni_wars = {
		icon = mission_face_off
		required_missions = { B38_grand_university }
		position = 11
		
		trigger = {
			if = {
				limit = { has_global_flag = escanni_wars_bypass }
				custom_trigger_tooltip = {
					tooltip = elikhand_bypass
					has_global_flag = escanni_wars_bypass
				}
			}
			else = {
				custom_trigger_tooltip = {
					tooltip = elikhand_consolidation
					OR = {
						has_global_flag = escanni_wars_global_flag
						has_global_flag = escanni_wars_end_global_flag
					}
				}
				NOT = { war_exhaustion = 0.1 }
				army_size_percentage = 0.9
			}
		}
		
		effect = {
			add_country_modifier = {
				name = elikhand_cementing
				duration = 12775
			}
			castonath_area = {
				limit = {
					NOT = { is_core = ROOT }
					NOT = { is_permanent_claim = ROOT }
				}
				add_claim = ROOT
			}
	    }
	}
	
	B38_stone_city = {
		icon = mission_magnificent_castle
		required_missions = { B38_escanni_wars }
		position = 12
		
		provinces_to_highlight = {
			area = castonath_area
			OR = {
				NOT = { owned_by = ROOT }
				NOT = { is_core = ROOT }
			}
			has_discovered = ROOT
		}
		
		trigger = {
			castonath_area = {
				type = all
				owned_by = ROOT
				is_core = ROOT
			}
			NOT = { is_at_war = yes }
		}
		
		effect = {
			add_country_modifier = {
				name = elikhand_castonath
				duration = 7300
			}
	    }
	}
	
	B38_claim_victory = {
		icon = mission_mounted_battle
		required_missions = { B38_elikhander_legions B38_stone_city }
		position = 13
		
		provinces_to_highlight = {
			OR = {
				region = inner_castanor_region
				region = south_castanor_region
				region = west_castanor_region
				area = cursewood_area
				area = whistlevale_area
			}
			NOT = { owned_by = ROOT }
			has_discovered = ROOT
		}
		
		trigger = {
			num_of_owned_provinces_with = {
				value = 100
				OR = {
					region = inner_castanor_region
					region = south_castanor_region
					region = west_castanor_region
					area = cursewood_area
					area = whistlevale_area
				}
			}
		}
		
		effect = {
			increase_legitimacy_large_effect = yes
			add_prestige = 25
			add_country_modifier = {
				name = elikahnd_loyal
				duration = 10950
			}
	    }
	}
	
	B38_all_peoples = {
		icon = mission_big_house
		required_missions = { B38_claim_victory }
		position = 14
		
		provinces_to_highlight = {
			NOT = { has_owner_accepted_culture = yes }
			owned_by = ROOT
			has_discovered = ROOT
		}
		
		trigger = {
			all_owned_province = { has_owner_accepted_culture = yes }
			total_development = 1750
			government_rank = 3
		}
		
		effect = {
			add_country_modifier = {
				name = elikhand_wanderer
				duration = -1
			}
	    }
	}
}

B38_early_nation = {
	slot = 3
	generic = no
	ai = yes
	potential = {
		tag = B38 #Elikhand
	}
	has_country_shield = yes
	
	B38_khetist_state = {
		icon = mission_brahmin_administrators
		required_missions = {  }
		position = 1
		
		provinces_to_highlight = {
			owned_by = ROOT
			NOT = { religion = khetist }
			has_discovered = ROOT
		}
		
		trigger = {
			religious_unity = 0.90
		}
		
		effect = {
			add_country_modifier = {
				name = elikhand_khetist_presence
				duration = 9125
			}
	    }
	}
	
	B38_land_peoples = {
		icon = mission_settlers_north_america
		required_missions = { B38_khetist_state }
		position = 2
		
		provinces_to_highlight = {
			owned_by = ROOT
			NOT = { has_owner_accepted_culture = yes }
			culture_is_human = yes
			NOT = {
				culture = kheteratan
				culture = elikhander
			}
			has_discovered = ROOT
		}
		
		trigger = {
			any_owned_province = {
				has_owner_accepted_culture = yes
				culture_is_human = yes
				NOT = {
					culture = kheteratan
					culture = elikhander
				}
			}
		}
		
		effect = {
			increase_legitimacy_medium_effect = yes
			add_estate_loyalty = { estate = estate_adventurers loyalty = 15 }
			random_owned_province = {
				limit = {
					has_owner_accepted_culture = yes
					culture_is_human = yes
					NOT = {
						culture = kheteratan
						culture = elikhander
					}
				}
				add_base_tax = 1
				add_base_production = 1
				add_base_manpower = 1
			}
	    }
	}
	
	B38_land_monsters = {
		icon = mission_heated_battle
		required_missions = { B38_land_peoples B38_consolidate }
		position = 3
		
		provinces_to_highlight = {
			owned_by = ROOT
			OR = {
				culture_group = orcish
				culture_is_half_orcish = yes
			}
			has_discovered = ROOT
		}
		
		trigger = {
			OR = {
				OR = { #Second OR not needed but improves readability
					has_country_modifier = racial_pop_orcish_expulsion
					has_country_modifier = racial_pop_orcish_purge
				}
				any_owned_province = {
					has_owner_accepted_culture = yes
					OR = {
						culture_group = orcish
						culture_is_half_orcish = yes
					}
				}
			}
		}
		
		effect = {
			custom_tooltip = elikhand_orc_question
			if = {
				limit = {
					OR = {
						has_country_modifier = racial_pop_orcish_expulsion
						has_country_modifier = racial_pop_orcish_purge
					}
				}
				set_country_flag = b38_hate_greens
				add_mil_power = 50
				add_estate_loyalty = { estate = estate_adventurers loyalty = 15 }
			}
			else_if = {
				limit = {
					any_owned_province = {
						has_owner_accepted_culture = yes
						OR = {
							culture_group = orcish
							culture_is_half_orcish = yes
						}
					}
				}
				set_country_flag = b38_love_greens
				medium_increase_of_half_orcish_tolerance_effect = yes
				medium_increase_of_orcish_tolerance_effect = yes
				random_owned_province = {
					limit = {
						has_owner_accepted_culture = yes
						OR = {
							culture_group = orcish
							culture_is_half_orcish = yes
						}
					}
					add_base_tax = 1
					add_base_manpower = 2
				}
				custom_tooltip = elikahnd_orc_reconversion
				hidden_effect = {
					every_owned_province = {
						limit = {
							OR = {
								culture_group = orcish
								culture_is_half_orcish = yes
							}
							religion_group = cannorian
						}
						remove_province_modifier = religious_zeal_at_conv
					}
				}
			}
	    }
	}
	
	B38_land_khet = {
		icon = mission_pray_light
		required_missions = { B38_land_monsters }
		position = 4
		
		provinces_to_highlight = {
			owned_by = ROOT
			OR = {
				NOT = { religion = khetist }
				NOT = { has_tax_building_trigger = yes }
			}
			has_discovered = ROOT
		}
		
		trigger = {
			if = {
				limit = { is_religion_enabled = corinite }
				OR = {
					all_owned_province = { 
						OR = {
							religion = khetist 
							religion = corinite
						}
					}
					calc_true_if = {
						all_owned_province = {
							b38_homeland = yes
						}
						amount = 20
					}
				}
			}
			else = { 
				OR = {
					all_owned_province = { religion = khetist }
					calc_true_if = {
						all_owned_province = {
							b38_homeland = yes
						}
						amount = 20
					}
				}
			}
			calc_true_if = {
				all_owned_province = {
					has_tax_building_trigger = yes
					b38_homeland = yes
				}
				amount = 8
			}
		}
		
		effect = {
			custom_tooltip = elikhand_khetlandt
			hidden_effect = {
				random_owned_province = {
					limit = {
						has_tax_building_trigger = yes
						is_state = yes
						OR = {
							superregion = escann_superregion
							area = cursewood_area
							area = whistlevale_area
						}
						NOT = { has_province_flag = elikhand_khetland }
					}
					add_base_tax = 1
					set_province_flag = elikhand_khetland
				}
				random_owned_province = {
					limit = {
						has_tax_building_trigger = yes
						is_state = yes
						OR = {
							superregion = escann_superregion
							area = cursewood_area
							area = whistlevale_area
						}
						NOT = { has_province_flag = elikhand_khetland }
					}
					add_base_tax = 1
					set_province_flag = elikhand_khetland
				}
				random_owned_province = {
					limit = {
						has_tax_building_trigger = yes
						is_state = yes
						OR = {
							superregion = escann_superregion
							area = cursewood_area
							area = whistlevale_area
						}
						NOT = { has_province_flag = elikhand_khetland }
					}
					add_base_tax = 1
					set_province_flag = elikhand_khetland
				}
				random_owned_province = {
					limit = {
						has_tax_building_trigger = yes
						is_state = yes
						OR = {
							superregion = escann_superregion
							area = cursewood_area
							area = whistlevale_area
						}
						NOT = { has_province_flag = elikhand_khetland }
					}
					add_base_tax = 1
					set_province_flag = elikhand_khetland
				}
				random_owned_province = {
					limit = {
						has_tax_building_trigger = yes
						is_state = yes
						OR = {
							superregion = escann_superregion
							area = cursewood_area
							area = whistlevale_area
						}
						NOT = { has_province_flag = elikhand_khetland }
					}
					add_base_tax = 1
					set_province_flag = elikhand_khetland
				}
				random_owned_province = {
					limit = {
						has_tax_building_trigger = yes
						is_state = yes
						OR = {
							superregion = escann_superregion
							area = cursewood_area
							area = whistlevale_area
						}
						NOT = { has_province_flag = elikhand_khetland }
					}
					add_base_tax = 1
					set_province_flag = elikhand_khetland
				}
				random_owned_province = {
					limit = {
						has_tax_building_trigger = yes
						is_state = yes
						OR = {
							superregion = escann_superregion
							area = cursewood_area
							area = whistlevale_area
						}
						NOT = { has_province_flag = elikhand_khetland }
					}
					add_base_tax = 1
					set_province_flag = elikhand_khetland
				}
				random_owned_province = {
					limit = {
						has_tax_building_trigger = yes
						is_state = yes
						OR = {
							superregion = escann_superregion
							area = cursewood_area
							area = whistlevale_area
						}
						NOT = { has_province_flag = elikhand_khetland }
					}
					add_base_tax = 1
					set_province_flag = elikhand_khetland
				}
			}
			add_country_modifier = {
				name = elikhand_khet_unity
				duration = 18250
			}
	    }
	}
	
	B38_escann_khetist = {
		icon = mission_crowning
		required_missions = { B38_revitalization B38_land_khet B38_new_kheterat }
		position = 5
		
		trigger = {
			estate_loyalty = { estate = all loyalty = 50 }
			estate_influence = { estate = all influence = 50 }
		}
		
		effect = {
			if = {
				limit = { NOT = { government_rank = 2 } }
				set_government_rank = 2
			}
			if = {
				limit = { has_country_modifier = legacy_of_adventurers_modifier }
				remove_country_modifier = legacy_of_adventurers_modifier
			}
			if = {
				limit = { has_country_modifier = organized_adventurer_administration }
				remove_country_modifier = organized_adventurer_administration
			}
			country_event = { id = flavor_elikhand.11 }
	    }
	}
}

B38_crown = {
	slot = 3
	generic = no
	ai = yes
	potential = {
		tag = B38 #Elikhand
	}
	has_country_shield = yes
	
	B38_visit_kheterata = {
		icon = befriend_ethiopia
		required_missions = { B38_escann_khetist }
		position = 6
		
		provinces_to_highlight = {
			OR = {
				owned_by = U01
				province_id = 475
			}
		}
		
		trigger = {
			if = {
				limit = { 
					U01 = { exists = yes }
					north_salahad_region = { owned_by = U01 }
				}
				reverse_has_opinion = { who = U01 value = 150 }
			}
			else = {
				475 = {
					owner = { has_opinion = { who = ROOT value = 100 } }
				}
			}
			dip_power = 100
		}
		
		effect = {
			add_dip_power = -100
			country_event = { id = flavor_elikhand.4 }
	    }
	}
	
	B38_steel_structure = {
		icon = mission_armoury
		required_missions = { B38_visit_kheterata }
		position = 7
		
		provinces_to_highlight = {
			owned_by = ROOT
			trade_goods = iron
			OR = {
				NOT = { base_production = 7 }
				NOT = { has_production_building_trigger = yes }
			}
			has_discovered = ROOT
		}
		
		trigger = {
			calc_true_if = {
				all_owned_province = {
					trade_goods = iron
					is_state = yes
					OR = {
						superregion = escann_superregion
						area = cursewood_area
						area = whistlevale_area
					}
					base_production = 7
					has_production_building_trigger = yes
				}
				amount = 3
			}
			if = {
				limit = { has_estate = estate_burghers }
				estate_loyalty = { estate = estate_burghers loyalty = 60 }
			}
			if = {
				limit = { has_estate = estate_castonath_patricians }
				estate_loyalty = { estate = estate_castonath_patricians loyalty = 60 }
			}
		}
		
		effect = {
			add_country_modifier = {
				name = elikhand_steel
				duration = 9125
			}
	    }
	}
	
	B38_mage_war = {
		icon = mission_sweat_fealty
		required_missions = { B38_steel_structure }
		position = 8
		
		trigger = {
			estate_loyalty = { estate = estate_mages loyalty = 60 }
			estate_influence = { estate = estate_mages influence = 50 }
			mage_tower = 1
			mil_power = 75
		}
		
		effect = {
			add_mil_power = -75
			define_general = {
				fire = 5
				shock = 9
				manuever = 2
				siege = 6
				name = "Duzi Aakha"
				trait = war_wizard_personality
			}
	    }
	}
	
	B38_show_power = {
		icon = mission_empowerment
		
		position = 9
		required_missions = { B38_mage_war }
		trigger = {
			ruler_has_mage_personality = yes
			is_legendary_mage = yes
			adm_power = 25
			dip_power = 25
			mil_power = 25
		}
		
		effect = {
			add_adm_power = -25
			add_dip_power = -25
			add_mil_power = -25
			add_estate_loyalty = { estate = estate_mages loyalty = 30 }
			change_estate_land_share = {
				estate = estate_mages
				share = -2
			}
			add_ruler_modifier = { name = elikahnd_power }
	    }
	}
	
	B38_pyramid_elikhand = {
		icon = mission_the_songhai_campaign
		required_missions = { B38_building_practice }
		position = 10
		
		provinces_to_highlight = {
			province_id = 769
			OR = {
				NOT = { owned_by = ROOT }
				NOT = { development = 20 }
			}
			has_discovered = ROOT
		}
		
		trigger = {
			if = {
				limit = { has_country_flag = b38_construction }
				NOT = { has_country_flag = b38_construction }
			}
			NOT = { has_country_modifier = elikhand_wonder_building }
			treasury = 1500
			manpower = 15
			769 = {
				owned_by = ROOT
				development = 20
			}
		}
		
		effect = {
			add_treasury = -1500
			add_manpower = -15
			country_event = { id = flavor_elikhand.6 }
	    }
	}
	
	B38_symbol_authority = {
		icon = mission_magic_tower
		required_missions = { B38_pyramid_elikhand }
		position = 11
		
		provinces_to_highlight = {
			OR = {
				province_id = 769
				has_province_flag = b38_entef_here
			}
			NOT = { owned_by = ROOT }
			has_discovered = ROOT
		}
		
		trigger = {
			if = {
				limit = { has_country_flag = b38_construction }
				NOT = { has_country_flag = b38_construction }
			}
			NOT = { has_country_modifier = elikhand_wonder_building }
			owns_core_province = 769
			adm_power = 50
			if = {
				limit = { NOT = { has_dlc = "Leviathan" } }
				treasury = 1000
			}
		}
		
		effect = {
			add_adm_power = -50
			add_prestige = 25
			add_splendor = 300
			if = {
				limit = { has_dlc = "Leviathan" }
				custom_tooltip = elikhand_pyramidt
				769 = { set_province_flag = elikhand_pyramid }
				hidden_effect = {
					random_owned_province = {
						limit = { has_province_flag = elikhand_pyramid }
						add_great_project = {
							type = elikhander_pyramid
							instant = no
						}
						
					}
				}
			}
			else = {
				add_treasury = -1000
				769 = {
					add_province_modifier = { 
						name = elikhand_pyramidpm
						duration = -1
					}
				}
			}
			hidden_effect = { country_event = { id = flavor_elikhand.8 days = 60 } }
	    }
	}
	
	B38_real_leadership = {
		icon = mission_arise_ashes
		required_missions = { B38_escanni_wars B38_symbol_authority }
		position = 12
		
		provinces_to_highlight = {
			province_id = 769
			NOT = { owned_by = ROOT }
			has_discovered = ROOT
		}
		
		trigger = {
			OR = {
				ruler_has_mage_personality = yes
				court_mage = 3
			}
			estate_loyalty = { estate = estate_mages loyalty = 60 }
			estate_influence = { estate = estate_mages influence = 50 }
			estate_loyalty = { estate = estate_church loyalty = 60 }
			estate_influence = { estate = estate_church influence = 50 }
			owns_core_province = 769
			if = {
				limit = { is_necromancy_3 = yes }
				adm_power = 10
				dip_power = 10
				mil_power = 10
			}
			else_if = {
				limit = { is_necromancy_2 = yes }
				adm_power = 100
				dip_power = 100
				mil_power = 100
			}
			else_if = {
				limit = { is_necromancy_1 = yes }
				adm_power = 200
				dip_power = 200
				mil_power = 200
			}
			else = {
				adm_power = 300
				dip_power = 300
				mil_power = 300
			}
		}
		
		effect = {
			custom_tooltip = elikhand_necro
			if = {
				limit = { is_necromancy_3 = yes }
				add_adm_power = -10
				add_dip_power = -10
				add_mil_power = -10
			}
			else_if = {
				limit = { is_necromancy_2 = yes }
				add_adm_power = -100
				add_dip_power = -100
				add_mil_power = -100
			}
			else_if = {
				limit = { is_necromancy_1 = yes }
				add_adm_power = -200
				add_dip_power = -200
				add_mil_power = -200
			}
			else = {
				add_adm_power = -300
				add_dip_power = -300
				add_mil_power = -300
			}
			custom_tooltip = elikhand_pause
			hidden_effect = { country_event = { id = flavor_elikhand.9 days = 2 } }
	    }
	}
	
	B38_tame_city = {
		icon = mission_discussion_arch
		required_missions = { B38_stone_city B38_legacy_architect }
		position = 13
		
		provinces_to_highlight = {
			area = castonath_area
			OR = {
				local_autonomy = 50
				devastation = 0.1
				NOT = { religion = ROOT }
				NOT = { owned_by = ROOT }
				NOT = { is_core = ROOT }
			}
			has_discovered = ROOT
		}
		
		trigger = {
			castonath_area = {
				type = all
				owned_by = ROOT
				is_core = ROOT
				religion = ROOT
				NOT = { local_autonomy = 50 }
				has_owner_accepted_culture = yes
				NOT = { devastation = 0.1 }
			}
			custom_trigger_tooltip = {
				tooltip = elikhand_negotiate
				OR = {
					has_estate = estate_castonath_patricians
					has_global_flag = castonath_patricians_wiped_out
					has_country_flag = castonath_patricians_reinstated
					has_country_flag = castonath_patricians_autonomous
					has_country_flag = castonath_patricians_curtailing_relationship
				}
			}
		}
		
		effect = {
			add_estate_loyalty = { estate = estate_castonath_patricians loyalty = 25 }
			castonath_area = {
				add_culture_construction = {
					speed = 1
					cost = 0
				}
			}
	    }
	}
	
	B38_rebuild_castanor = {
		icon = eastern_catholicization
		required_missions = { B38_claim_victory B38_tame_city }
		position = 14
		
		provinces_to_highlight = {
			OR = {
				region = inner_castanor_region
				region = south_castanor_region
				region = west_castanor_region
				area = cursewood_area
				area = whistlevale_area
			}
			OR = {
				NOT = { has_manufactory_trigger = yes }
				NOT = { owned_by = ROOT }
			}
			has_discovered = ROOT
		}
		
		trigger = {
			if = {
				limit = { has_global_flag = escanni_wars_bypass }
				custom_trigger_tooltip = {
					tooltip = elikhand_bypass
					has_global_flag = escanni_wars_bypass
				}
			}
			else = {
				custom_trigger_tooltip = {
					tooltip = elikhand_woec_over
					has_global_flag = escanni_wars_end_global_flag
				}
			}
			num_of_owned_provinces_with = {
				value = 75
				has_manufactory_trigger = yes
				OR = {
					region = inner_castanor_region
					region = south_castanor_region
					region = west_castanor_region
					area = cursewood_area
					area = whistlevale_area
				}
			}
			num_of_owned_provinces_with = {
				value = 20
				development = 30
				OR = {
					region = inner_castanor_region
					region = south_castanor_region
					region = west_castanor_region
					area = cursewood_area
					area = whistlevale_area
				}
			}
		}
		
		effect = {
			add_country_modifier = {
				name = elikhand_provider
				duration = -1
			}
	    }
	}
	
	B38_worthy_elikhet = {
		icon = ark_of_the_covenant
		required_missions = { B38_all_peoples B38_rebuild_castanor B38_castans_wonders }
		position = 15
		
		provinces_to_highlight = {
			OR = {
				AND = {
					province_id = 229
					NOT = {
						has_great_project = {
							type = bal_mire
							tier = 3
						}
					}
				}
				AND = {
					province_id = 441
					NOT = {
						has_great_project = {
							type = bal_dostan
							tier = 3
						}
					}
				}
				AND = {
					province_id = 769
					NOT = {
						has_great_project = {
							type = elikhander_pyramid
							tier = 3
						}
					}
				}
				AND = {
					province_id = 759
					NOT = {
						has_great_project = {
							type = elikhander_orbs
							tier = 3
						}
					}
				}
				AND = {
					province_id = 756
					NOT = {
						has_great_project = {
							type = elikhander_sphinx
							tier = 3
						}
					}
				}
				AND = {
					province_id = 840
					NOT = {
						has_great_project = {
							type = the_north_citadel
							tier = 3
						}
					}
				}
			}
			has_discovered = ROOT
		}
		
		trigger = {
			prestige = 90
			monthly_income = 400
			alliance_with = U01
			religious_unity = 0.95
			if = {
				limit = {
					has_dlc = "Leviathan"
				}
				#custom_trigger_tooltip = {
					#tooltip = elikhand_wonders
					#calc_true_if = {
						229 = {
							owned_by = ROOT
							has_great_project = {
								type = bal_mire
								tier = 3
							}
						}
						769 = {
							owned_by = ROOT
							has_great_project = {
								type = elikhander_pyramid
								tier = 3
							}
						}
						759 = {
							owned_by = ROOT
							has_great_project = {
								type = elikhander_orbs
								tier = 3
							}
						}
						756 = {
							owned_by = ROOT
							has_great_project = {
								type = elikhander_sphinx
								tier = 3
							}
						}
						OR = {
							441 = {
								owned_by = ROOT
								has_great_project = {
									type = bal_dostan
									tier = 3
								}
							}
							840 = { 
								owned_by = ROOT
								has_great_project = {
									type = the_north_citadel
									tier = 3
								}
							}
						}
						#amount = 5
					#}
				#}
			}
			else = {
				num_of_owned_provinces_with = {
					value = 5
					development = 50
				}
			}
		}
		
		effect = {
			add_country_modifier = {
				name = elikhand_renouncer
				duration = -1
			}
	    }
	}
}

B38_early_solidify = {
	slot = 4
	generic = no
	ai = yes
	potential = {
		tag = B38 #Elikhand
	}
	has_country_shield = yes
	
	
	B38_power_base = {
		icon = mission_unite_home_region
		required_missions = {  }
		position = 1
		
		provinces_to_highlight = {
			region = west_castanor_region
			NOT = { is_state_core = ROOT }
			has_discovered = ROOT
		}
		
		trigger = {
			calc_true_if = {
				all_owned_province = {
					region = west_castanor_region
					is_state = yes
				}
				amount = 10
			}
		}
		
		effect = {
			custom_tooltip = elikhand_lose_devestation_west
			hidden_effect = {
				every_owned_province = {
					limit = {
						region = west_castanor_region
					}
					add_devastation = -30
				}
			}
			add_country_modifier = {
				name = elikhand_borders
				duration = 7300
			}
			rohibon_area = {
				limit = {
					NOT = { is_core = ROOT }
					NOT = { is_permanent_claim = ROOT }
				}
				add_permanent_claim = ROOT
			}
			taran_plains_area = {
				limit = {
					NOT = { is_core = ROOT }
					NOT = { is_permanent_claim = ROOT }
				}
				add_permanent_claim = ROOT
			}
			adenica_area = {
				limit = {
					NOT = { is_core = ROOT }
					NOT = { is_permanent_claim = ROOT }
				}
				add_permanent_claim = ROOT
			}
	    }
	}
	
	B38_consolidate = {
		icon = mission_conquer_50_development
		required_missions = { B38_power_base }
		position = 2
		
		provinces_to_highlight = {
			OR = {
				area = rohibon_area
				area = taran_plains_area
				area = adenica_area
			}
			OR = {
				NOT = { owned_by = ROOT }
				NOT = { is_core = ROOT }
			}
			has_discovered = ROOT
		}
		
		trigger = {
			rohibon_area = {
				type = all
				owned_by = ROOT
				is_core = ROOT
			}
			taran_plains_area = {
				type = all
				owned_by = ROOT
				is_core = ROOT
			}
			adenica_area = {
				type = all
				owned_by = ROOT
				is_core = ROOT
			}
		}
		
		effect = {
			add_country_modifier = {
				name = elikhand_centralizing
				duration = 9125
			}
			falsemire_area = {
				limit = {
					NOT = { is_core = ROOT }
					NOT = { is_permanent_claim = ROOT }
				}
				add_permanent_claim = ROOT
			}
			silvervord_area = {
				limit = {
					NOT = { is_core = ROOT }
					NOT = { is_permanent_claim = ROOT }
				}
				add_permanent_claim = ROOT
			}
			upcreek_area = {
				limit = {
					NOT = { is_core = ROOT }
					NOT = { is_permanent_claim = ROOT }
				}
				add_permanent_claim = ROOT
			}
			verteben_area = {
				limit = {
					NOT = { is_core = ROOT }
					NOT = { is_permanent_claim = ROOT }
				}
				add_permanent_claim = ROOT
			}
			valefort_area = {
				limit = {
					NOT = { is_core = ROOT }
					NOT = { is_permanent_claim = ROOT }
				}
				add_permanent_claim = ROOT
			}
			merescker_area = {
				limit = {
					NOT = { is_core = ROOT }
					NOT = { is_permanent_claim = ROOT }
				}
				add_permanent_claim = ROOT
			}
			whistlevale_area = {
				limit = {
					NOT = { is_core = ROOT }
					NOT = { is_permanent_claim = ROOT }
				}
				add_permanent_claim = ROOT
			}
			cursewood_area = {
				limit = {
					NOT = { is_core = ROOT }
					NOT = { is_permanent_claim = ROOT }
				}
				add_permanent_claim = ROOT
			}
	    }
	}
	
	B38_northern_flank = {
		icon = mission_advance_to_the_dnieper
		required_missions = { B38_consolidate }
		position = 3
		
		provinces_to_highlight = {
			OR = {
				area = falsemire_area
				area = silvervord_area
				area = upcreek_area
			}
			OR = {
				NOT = { owned_by = ROOT }
				NOT = { is_core = ROOT }
			}
			has_discovered = ROOT
		}
		
		trigger = {
			falsemire_area = {
				type = all
				owned_by = ROOT
				is_core = ROOT
			}
			silvervord_area = {
				type = all
				owned_by = ROOT
				is_core = ROOT
			}
			upcreek_area = {
				type = all
				owned_by = ROOT
				is_core = ROOT
			}
		}
		
		effect = {
			add_adm_power = 100
			balmire_area = {
				limit = {
					NOT = { is_core = ROOT }
					NOT = { is_permanent_claim = ROOT }
				}
				add_permanent_claim = ROOT
			}
			cannwood_area = {
				limit = {
					NOT = { is_core = ROOT }
					NOT = { is_permanent_claim = ROOT }
				}
				add_permanent_claim = ROOT
			}
			westwall_approach_area = {
				limit = {
					NOT = { is_core = ROOT }
					NOT = { is_permanent_claim = ROOT }
				}
				add_permanent_claim = ROOT
			}
	    }
	}
	
	B38_new_kheterat = {
		icon = mission_city_prosperity
		required_missions = { B38_land_monsters }
		position = 4
		
		provinces_to_highlight = {
			OR = {
				NOT = { owned_by = ROOT }
				NOT = { is_core = ROOT }
				NOT = { development = 10 }
			}
			OR = {
				province_id = 756
				province_id = 759
				province_id = 769
				province_id = 781
			}
			has_discovered = ROOT
		}
		
		trigger = {
			756 = { #Silvervord
				owned_by = ROOT
				is_core = ROOT
				development = 10
			}
			759 = { #Badeben
				owned_by = ROOT
				is_core = ROOT
				development = 10
			}
			769 = { #Rohibon
				owned_by = ROOT
				is_core = ROOT
				development = 10
			}
			781 = { #Shieldrest
				owned_by = ROOT
				is_core = ROOT
				development = 10
			}
		}
		
		effect = {
			country_event = { id = flavor_elikhand.2 } 
	    }
	}
	
	B38_northern_forests = {
		icon = mission_alone_in_the_wood
		required_missions = { B38_new_kheterat B38_manage_tempers }
		position = 5
		
		provinces_to_highlight = {
			OR = {
				area = balmire_area
				area = cannwood_area
				area = westwall_approach_area
			}
			OR = {
				NOT = { owned_by = ROOT }
				NOT = { is_core = ROOT }
			}
			has_discovered = ROOT
		}
		
		trigger = {
			balmire_area = {
				type = all
				owned_by = ROOT
				is_core = ROOT
			}
			cannwood_area = {
				type = all
				owned_by = ROOT
				is_core = ROOT
			}
			westwall_approach_area = {
				type = all
				owned_by = ROOT
				is_core = ROOT
			}
		}
		
		effect = {
			add_country_modifier = {
				name = elikhand_frontier
				duration = 7300
			}
	    }
	}
}

B38_wonders = {
	slot = 4
	generic = no
	ai = yes
	potential = {
		tag = B38 #Elikhand
	}
	has_country_shield = yes
	
	B38_lumber_scaffolds = {
		icon = mission_clear_the_delta
		required_missions = { B38_escann_khetist B38_northern_forests B38_southern_forests }
		position = 6
		
		provinces_to_highlight = {
			owned_by = ROOT
			OR = {
				has_terrain = woods
				has_terrain = forest
				trade_goods = naval_supplies
			}
			OR = {
				NOT = { base_production = 5 }
				NOT = { has_production_building_trigger = yes }
			}
			has_discovered = ROOT
		}
		
		trigger = {
			calc_true_if = {
				all_owned_province = {
					OR = {
						has_terrain = woods
						has_terrain = forest
						trade_goods = naval_supplies
					}
					is_state = yes
					OR = {
						superregion = escann_superregion
						area = cursewood_area
						area = whistlevale_area
					}
					base_production = 5
					has_production_building_trigger = yes
				}
				amount = 8
			}
			estate_loyalty = { estate = estate_adventurers loyalty = 60 }
		}
		
		effect = {
			add_country_modifier = {
				name = elikhand_lumber
				duration = 9125
			}
	    }
	}
	
	B38_animals_labor = {
		icon = mission_rb_conquer_wales
		required_missions = { B38_visit_kheterata B38_lumber_scaffolds }
		position = 7
		
		provinces_to_highlight = {
			owned_by = ROOT
			trade_goods = livestock
			NOT = { has_building = farm_estate }
			has_discovered = ROOT
		}
		
		trigger = {
			calc_true_if = {
				all_owned_province = {
					trade_goods = livestock
					is_state = yes
					OR = {
						superregion = escann_superregion
						area = cursewood_area
						area = whistlevale_area
					}
					has_building = farm_estate
				}
				amount = 7
			}
			estate_loyalty = { estate = estate_nobles loyalty = 60 }
		}
		
		effect = {
			add_country_modifier = {
				name = elikhand_animals
				duration = 9125
			}
	    }
	}
	
	B38_stone_glory = {
		icon = prosper_in_piedmont
		required_missions = { B38_steel_structure B38_animals_labor }
		position = 8
		
		provinces_to_highlight = {
			owned_by = ROOT
			OR = {
				province_id = 779
				province_id = 780
				province_id = 781
				province_id = 784
				province_id = 791
				province_id = 797
				province_id = 802
				province_id = 441
			}
			OR = {
				NOT = { development = 25 }
				NOT = { has_production_building_trigger = yes }
			}
			has_discovered = ROOT
		}
		
		trigger = {
			calc_true_if = {
				all_owned_province = {
					OR = {
						province_id = 779
						province_id = 780
						province_id = 781
						province_id = 784
						province_id = 791
						province_id = 797
						province_id = 802
						province_id = 441
					}
					is_state = yes
					development = 25
					has_production_building_trigger = yes
				}
				amount = 2
			}
			estate_loyalty = { estate = estate_mages loyalty = 50 }
		}
		
		effect = {
			add_country_modifier = {
				name = elikhand_stone
				duration = 9125
			}
	    }
	}
	
	B38_building_practice = {
		icon = mission_white_tower
		required_missions = { B38_stone_glory B38_golden_age }
		position = 9
		
		provinces_to_highlight = {
			OR = {
				province_id = 229
				province_id = 441
			}
			has_discovered = ROOT
		}
		
		trigger = {
			if = {
				limit = {
					has_dlc = "Leviathan"
				}
				#custom_trigger_tooltip = {
					#tooltip = elikhand_building_practice
					229 = {
						owned_by = ROOT
						OR = {
							has_great_project = {
								type = bal_mire
								tier = 2
							}
							has_great_project = {
								type = bal_mire
								tier = 3
							}
						}
					}
					#441 = {
					#	owned_by = ROOT
					#	OR = {
					#		has_great_project = {
					#			type = bal_dostan
					#			tier = 1
					#		}
					#		has_great_project = {
					#			type = bal_dostan
					#			tier = 2
					#		}
					#		has_great_project = {
					#			type = bal_dostan
					#			tier = 3
					#		}
					#	}
					#}
					#OR = {
					#	229 = {
					#		owned_by = ROOT
					#		OR = {
					#			has_great_project = {
					#				type = bal_mire
					#				tier = 2
					#			}
					#			has_great_project = {
					#				type = bal_mire
					#				tier = 3
					#			}
					#		}
					#	}
					#	441 = {
					#		owned_by = ROOT
					#		OR = {
					#			has_great_project = {
					#				type = bal_dostan
					#				tier = 2
					#			}
					#			has_great_project = {
					#				type = bal_dostan
					#				tier = 3
					#			}
					#		}
					#	}
					#}
				#}
			}
			else = {
				229 = {
					owned_by = ROOT
					development = 20
					has_province_modifier = castanorian_citadel
					fort_level = 2
				}
				441 = {
					owned_by = ROOT
					development = 20
					has_province_modifier = castanorian_citadel
					fort_level = 2
				}
				OR = {
					229 = { development = 30 }
					441 = { development = 30 }
				}
				treasury = 1000
			}
		}
		
		effect = {
			add_stability_or_adm_power = yes
			add_prestige = 25
			add_splendor = 400
			if = {
				limit = { NOT = { has_dlc = "Leviathan" } }
				add_treasury = -1000
			}
	    }
	}
	
	B38_obelisks_power = {
		icon = mission_reclaim_dehli
		required_missions = { B38_building_practice }
		position = 10
		
		provinces_to_highlight = {
			province_id = 759
			OR = {
				NOT = { owned_by = ROOT }
				NOT = { development = 20 }
			}
			has_discovered = ROOT
		}
		
		trigger = {
			if = {
				limit = { has_country_flag = b38_construction }
				NOT = { has_country_flag = b38_construction }
			}
			NOT = { has_country_modifier = elikhand_wonder_building }
			ruler_has_mage_personality = yes
			treasury = 1500
			manpower = 15
			759 = {
				owned_by = ROOT
				development = 20
			}
		}
		
		effect = {
			add_treasury = -1500
			add_manpower = -15
			country_event = { id = flavor_elikhand.6 }
	    }
	}
	
	B38_orbs_nation = {
		icon = mission_conquer_alexandria
		required_missions = { B38_obelisks_power }
		position = 11
		
		provinces_to_highlight = {
			province_id = 759
			NOT = { owned_by = ROOT }
			has_discovered = ROOT
		}
		
		trigger = {
			if = {
				limit = { has_country_flag = b38_construction }
				NOT = { has_country_flag = b38_construction }
			}
			NOT = { has_country_modifier = elikhand_wonder_building }
			owns_core_province = 759
			adm_power = 50
			if = {
				limit = { NOT = { has_dlc = "Leviathan" } }
				treasury = 1000
			}
		}
		
		effect = {
			add_adm_power = -50
			add_prestige = 25
			add_splendor = 300
			if = {
				limit = { has_dlc = "Leviathan" }
				custom_tooltip = elikhand_orbt
				759 = { set_province_flag = elikhand_orb }
				hidden_effect = {
					random_owned_province = {
						limit = { has_province_flag = elikhand_orb }
						add_great_project = {
							type = elikhander_orbs
							instant = no
						}
					}
				}
			}
			else = {
				add_treasury = -1000
				759 = {
					add_province_modifier = { 
						name = elikhand_orbspm
						duration = -1
					}
				}
			}
	    }
	}
	
	B38_legacy_architect = {
		icon = mission_sun_temple
		required_missions = { B38_symbol_authority B38_orbs_nation B38_worthy_tribute }
		position = 12
		
		provinces_to_highlight = {
			OR = {
				AND = {
					province_id = 769
					OR = {
						NOT = { owned_by = ROOT }
						NOT = {
							has_great_project = {
								type = elikhander_pyramid
								tier = 2
							}
							has_great_project = {
								type = elikhander_pyramid
								tier = 3
							}
						}
					}
				}
				AND = {
					province_id = 759
					OR = {
						NOT = { owned_by = ROOT }
						NOT = {
							has_great_project = {
								type = elikhander_orbs
								tier = 2
							}
							has_great_project = {
								type = elikhander_orbs
								tier = 3
							}
						}
					}
				}
				AND = {
					province_id = 756
					OR = {
						NOT = { owned_by = ROOT }
						NOT = {
							has_great_project = {
								type = elikhander_sphinx
								tier = 2
							}
							has_great_project = {
								type = elikhander_sphinx
								tier = 3
							}
						}
					}
				}
			}
			has_discovered = ROOT
		}
		
		trigger = {
			if = {
				limit = {
					has_dlc = "Leviathan"
				}
				769 = {
					owned_by = ROOT
					OR = {
						has_great_project = {
							type = elikhander_pyramid
							tier = 2
						}
						has_great_project = {
							type = elikhander_pyramid
							tier = 3
						}
					}
				}
				759 = {
					owned_by = ROOT
					OR = {
						has_great_project = {
							type = elikhander_orbs
							tier = 2
						}
						has_great_project = {
							type = elikhander_orbs
							tier = 3
						}
					}
				}
				756 = {
					owned_by = ROOT
					OR = {
						has_great_project = {
							type = elikhander_sphinx
							tier = 2
						}
						has_great_project = {
							type = elikhander_sphinx
							tier = 3
						}
					}
				}
			}
			else = {
				769 = { development = 30 }
				759 = { development = 30 }
				756 = { development = 30 }
			}
		}
		
		effect = {
			add_country_modifier = {
				name = elikhand_architect
				duration = -1
			}
	    }
	}
	
	B38_impress_envoys = {
		icon = mission_feast
		required_missions = { B38_legacy_architect }
		position = 13
		
		provinces_to_highlight = {
			owner = {
				NOT = { religion = dalcabba }
				NOT = {
					has_opinion = {
						who = ROOT
						value = 100
					}
				}
				capital_scope = { continent = europe }
			}
			has_discovered = ROOT
		}
		
		trigger = {
			prestige = 50
			calc_true_if = {
				all_country = {  
					NOT = { religion = dalcabba }
					has_opinion = {
						who = ROOT
						value = 100
					}
					capital_scope = { continent = europe }
				}
				amount = 5
			}
			dip_power = 100
		}
		
		effect = {
			add_dip_power = -100
			custom_tooltip = elikhand_envoys
			hidden_effect = {
				every_known_country = {
					limit = {
						NOT = { religion = dalcabba }
						has_opinion = {
							who = ROOT
							value = 100
						}
						capital_scope = { continent = europe }
					}
					country_event = { id = flavor_elikhand.13 }
				}
			}
			dalcabba_surge = yes
	    }
	}
	
	B38_castans_wonders = {
		icon = promote_urbanization
		required_missions = { B38_tame_city B38_impress_envoys }
		position = 14
		
		provinces_to_highlight = {
			OR = {
				AND = {
					province_id = 833
					NOT = { has_province_modifier = castonath_splendid_court }
				}
				AND = {
					province_id = 832
					NOT = { has_province_modifier = castonath_grand_bazaar }
				}
				AND = {
					province_id = 831
					NOT = { has_province_modifier = castonath_dragonforge }
				}
			}
			has_discovered = ROOT
		}
		
		trigger = {
			833 = {
				owned_by = ROOT
				has_province_modifier = castonath_splendid_court
			}
			832 = {
				owned_by = ROOT
				has_province_modifier = castonath_grand_bazaar
			}
			831 = {
				owned_by = ROOT
				has_province_modifier = castonath_dragonforge
			}
			adm_power = 100
			dip_power = 100
			mil_power = 100
		}
		
		effect = {
			add_adm_power = -100
			add_dip_power = -100
			add_mil_power = -100
			castonath_area = {
				add_base_tax = 1
				add_base_production = 1
				add_base_manpower = 1
			}
	    }
	}
}

B38_early_expansion = {
	slot = 5
	generic = no
	ai = yes
	potential = {
		tag = B38 #Elikhand
	}
	has_country_shield = yes
	
	B38_salahadesi_cavalry = {
		icon = mission_marwari_horses
		required_missions = {  }
		position = 1
		
		trigger = {
			num_of_cavalry = 6
		}
		
		effect = {
			add_country_modifier = {
				name = elikhand_swift_battle
				duration = 9125
			}
	    }
	}
	
	B38_proper_support = {
		icon = mission_non-western_soldiers
		required_missions = { B38_salahadesi_cavalry }
		position = 2
		
		provinces_to_highlight = {
			owned_by = ROOT
			NOT = { has_manpower_building_trigger = yes }
			has_discovered = ROOT
		}
		
		trigger = {
			num_of_infantry = 12
			num_of_artillery = 2
			OR = {
				barracks = 3
				training_fields = 3
			}
		}
		
		effect = {
			add_estate_loyalty = { estate = estate_nobles loyalty = 15 }
			add_country_modifier = {
				name = elikhand_early_army
				duration = 9125
			}
	    }
	}
	
	B38_southern_flank = {
		icon = mission_consolidate_the_state
		required_missions = { B38_consolidate B38_proper_support }
		position = 3
		
		provinces_to_highlight = {
			OR = {
				area = whistlevale_area
				area = valefort_area
				area = verteben_area
				area = merescker_area
			}
			OR = {
				NOT = { owned_by = ROOT }
				NOT = { is_core = ROOT }
			}
			has_discovered = ROOT
		}
		
		trigger = {
			whistlevale_area = {
				type = all
				owned_by = ROOT
				is_core = ROOT
			}
			valefort_area = {
				type = all
				owned_by = ROOT
				is_core = ROOT
			}
			verteben_area = {
				type = all
				owned_by = ROOT
				is_core = ROOT
			}
			merescker_area = {
				type = all
				owned_by = ROOT
				is_core = ROOT
			}
		}
		
		effect = {
			add_country_modifier = {
				name = elikhand_borders
				duration = 7300
			}
			nortmerewood_area = {
				limit = {
					NOT = { is_core = ROOT }
					NOT = { is_permanent_claim = ROOT }
				}
				add_permanent_claim = ROOT
			}
			oudmerewood_area = {
				limit = {
					NOT = { is_core = ROOT }
					NOT = { is_permanent_claim = ROOT }
				}
				add_permanent_claim = ROOT
			}
	    }
	}
	
	B38_manage_tempers = {
		icon = mission_candide_letter
		required_missions = { B38_northern_flank B38_southern_flank }
		position = 4
		
		provinces_to_highlight = {
			owner = {
				total_development = 50
				is_subject = no
				has_opinion_modifier = {
					modifier = aggressive_expansion
					who = ROOT
				}
				NOT = {
					has_opinion_modifier = {
						modifier = aggressive_expansion
						who = ROOT
						value = -20
					}
					has_opinion = {
						who = ROOT
						value = 50
					}
				}
			}
			has_discovered = ROOT
		}
		
		trigger = {
			custom_trigger_tooltip = { 
				tooltip = elikhand_tempers
				all_known_country = {
					OR = {
						NOT = {
							has_opinion_modifier = {
								modifier = aggressive_expansion
								who = PREV
							}
						}
						OR = {
							AND = {
								has_opinion_modifier = {
									modifier = aggressive_expansion
									who = PREV
									value = -49
								}
								is_enemy = ROOT
							}
							has_opinion_modifier = {
								modifier = aggressive_expansion
								who = PREV
								value = -20
							}
						}
						has_opinion = {
							who = PREV
							value = 50
						}
						NOT = { total_development = 50 }
						is_subject = yes
					}
				}
			}
		}
		
		effect = {
			add_prestige = 10
			define_advisor = {
				type = diplomat
				name = "Hyaclos Akhaat"
				skill = 2
				cost_multiplier = 0.25
			}
	    }
	}
	
	B38_southern_forests = {
		icon = mission_alone_in_the_forest
		required_missions = { B38_manage_tempers }
		position = 5
		
		provinces_to_highlight = {
			OR = {
				area = nortmerewood_area
				area = oudmerewood_area
			}
			OR = {
				NOT = { owned_by = ROOT }
				NOT = { is_core = ROOT }
			}
			has_discovered = ROOT
		}
		
		trigger = {
			nortmerewood_area = {
				type = all
				owned_by = ROOT
				is_core = ROOT
			}
			oudmerewood_area = {
				type = all
				owned_by = ROOT
				is_core = ROOT
			}
		}
		
		effect = {
			catelsvord_area = {
				limit = {
					NOT = { is_core = ROOT }
					NOT = { is_permanent_claim = ROOT }
				}
				add_permanent_claim = ROOT
			}
			devaced_area = {
				limit = {
					NOT = { is_core = ROOT }
					NOT = { is_permanent_claim = ROOT }
				}
				add_permanent_claim = ROOT
			}
			vernham_area = {
				limit = {
					NOT = { is_core = ROOT }
					NOT = { is_permanent_claim = ROOT }
				}
				add_permanent_claim = ROOT
			}
			oudeben_area = {
				limit = {
					NOT = { is_core = ROOT }
					NOT = { is_permanent_claim = ROOT }
				}
				add_permanent_claim = ROOT
			}
	    }
	}
	
	B38_field_marches = {
		icon = mission_tree_fishing
		required_missions = { B38_southern_forests }
		position = 6
		
		provinces_to_highlight = {
			OR = {
				area = catelsvord_area
				area = devaced_area
				area = vernham_area
				area = oudeben_area
			}
			OR = {
				NOT = { owned_by = ROOT }
				NOT = { is_core = ROOT }
			}
			has_discovered = ROOT
		}
		
		trigger = {
			catelsvord_area = {
				type = all
				owned_by = ROOT
				is_core = ROOT
			}
			devaced_area = {
				type = all
				owned_by = ROOT
				is_core = ROOT
			}
			vernham_area = {
				type = all
				owned_by = ROOT
				is_core = ROOT
			}
			oudeben_area = {
				type = all
				owned_by = ROOT
				is_core = ROOT
			}
		}
		
		effect = {
			add_mil_power = 50
			dostans_way_area = {
				limit = {
					NOT = { is_core = ROOT }
					NOT = { is_permanent_claim = ROOT }
				}
				add_permanent_claim = ROOT
			}
			441 = {
				if = {
					limit = {
						NOT = { is_core = ROOT }
						NOT = { is_permanent_claim = ROOT }
					}
					add_permanent_claim = ROOT
				}
			}
			baldostan_area = {
				limit = {
					NOT = { is_core = ROOT }
					NOT = { is_permanent_claim = ROOT }
				}
				add_claim = ROOT
			}
	    }
	}
	
	B38_explorers_citadel = {
		icon = mission_mountain_castle
		required_missions = { B38_field_marches }
		position = 7
		
		provinces_to_highlight = {
			OR = {
				area = dostans_way_area
				province_id = 441
			}
			OR = {
				NOT = { owned_by = ROOT }
				NOT = { is_core = ROOT }
			}
			has_discovered = ROOT
		}
		
		trigger = {
			dostans_way_area = {
				type = all
				owned_by = ROOT
				is_core = ROOT
			}
			441 = {
				owned_by = ROOT
				is_core = ROOT
			}
		}
		
		effect = {
			custom_tooltip = elikhand_lose_devestation_south
			custom_tooltip = elikhand_dostan_tax
			hidden_effect = {
				every_owned_province = {
					limit = {
						region = south_castanor_region
					}
					add_devastation = -30
				}
				every_owned_province = {
					limit = {
						area = dostans_way_area
					}
					add_base_tax = 1
				}
			}
	    }
	}
}

B38_sphinx_horses = {
	slot = 5
	generic = no
	ai = yes
	potential = {
		tag = B38 #Elikhand
	}
	has_country_shield = yes
	
	B38_golden_age = {
		icon = feast_of_pheasants
		required_missions = { B38_animals_labor }
		position = 8
		
		provinces_to_highlight = {
			owned_by = ROOT
			devastation = 0.01
			has_discovered = ROOT
		}
		
		trigger = {
			all_owned_province = {
				NOT = { devastation = 0.1 }
			}
			NOT = { war_exhaustion = 0.1 }
			OR = {
				AND = {
					stability = 2
					if = {
						limit = {
							has_dlc = "Mandate of Heaven"
						}
						custom_trigger_tooltip = {
							tooltip = elikhand_ten_p
							calc_true_if = {
								all_owned_province = {
									is_prosperous = yes
									is_state = yes
								}
								amount = 2
							}
						}
					}
				}
				AND = {
					in_golden_age = yes
					stability = 1
					if = {
						limit = {
							has_dlc = "Mandate of Heaven"
						}
						custom_trigger_tooltip = {
							tooltip = elikhand_two_p
							calc_true_if = {
								all_owned_province = {
									is_prosperous = yes
									is_state = yes
								}
								amount = 2
							}
						}
					}
				}
			}
		}
		
		effect = {
			add_country_modifier = {
				name = elikhand_building
				duration = 9125
			}
	    }
	}
	
	B38_horse_breeding = {
		icon = league_of_the_public_weal
		required_missions = { B38_golden_age }
		position = 9
		
		trigger = {
			OR = {
				natural_scientist = 2
				has_mil_advisor_3 = yes
			}
			if = {
				limit = { has_dlc = "Cradle of Civilization" }
				num_of_regiments_at_full_drill = 10
				num_of_cavalry = 10
			}
			else = {
				num_of_cavalry = 14
			}
			if = {
				limit = { has_dlc = "Cradle of Civilization" }
				army_professionalism = 0.4
			}
			else = { army_tradition = 40 }
			calc_true_if = {
				full_idea_group = aristocracy_ideas
				full_idea_group = theocracy_gov_ideas
				full_idea_group = offensive_ideas
				full_idea_group = defensive_ideas
				full_idea_group = quality_ideas
				full_idea_group = quantity_ideas
				full_idea_group = naval_ideas
				amount = 2
			}
			mil_power = 150
		}
		
		effect = {
			add_mil_power = -150
			country_event = { id = flavor_elikhand.5 } 
	    }
	}
	
	B38_escanni_sphinx = {
		icon = mission_egyptian_mamluk_soldier
		required_missions = { B38_building_practice }
		position = 10
		
		provinces_to_highlight = {
			province_id = 756
			OR = {
				NOT = { owned_by = ROOT }
				NOT = { development = 20 }
			}
			has_discovered = ROOT
		}
		
		trigger = {
			if = {
				limit = { has_country_flag = b38_construction }
				NOT = { has_country_flag = b38_construction }
			}
			NOT = { has_country_modifier = elikhand_wonder_building }
			treasury = 1500
			manpower = 15
			756 = {
				owned_by = ROOT
				development = 20
			}
		}
		
		effect = {
			add_treasury = -1500
			add_manpower = -15
			country_event = { id = flavor_elikhand.6 }
	    }
	}
	
	B38_worthy_tribute = {
		icon = mission_rb_seize_alexandria
		required_missions = { B38_escanni_sphinx }
		position = 11
		
		provinces_to_highlight = {
			province_id = 756
			NOT = { owned_by = ROOT }
			has_discovered = ROOT
		}
		
		trigger = {
			if = {
				limit = { has_country_flag = b38_construction }
				NOT = { has_country_flag = b38_construction }
			}
			NOT = { has_country_modifier = elikhand_wonder_building }
			owns_core_province = 756
			adm_power = 50
			if = {
				limit = { NOT = { has_dlc = "Leviathan" } }
				treasury = 1000
			}
		}
		
		effect = {
			add_adm_power = -50
			add_prestige = 25
			add_splendor = 300
			if = {
				limit = { has_dlc = "Leviathan" }
				custom_tooltip = elikhand_sphinxt
				756 = { set_province_flag = elikhand_sphinx }
				hidden_effect = {
					random_owned_province = {
						limit = { has_province_flag = elikhand_sphinx }
						add_great_project = {
							type = elikhander_sphinx
							instant = no
						}
					}
				}
			}
			else = {
				add_treasury = -1000
				756 = {
					add_province_modifier = { 
						name = elikhand_sphinxpm
						duration = -1
					}
				}
			}
	    }
	}
}

B38_mummy_lord = {
	slot = 5
	generic = no
	ai = yes
	potential = {
		tag = B38 #Elikhand
		has_country_flag = b38_entef_ruler
	}
	has_country_shield = yes
	
	B38_save_masses = {
		icon = mission_dancing_with_dead
		required_missions = {  }
		position = 12
		
		trigger = {
			NOT = { war_exhaustion = 0.1 }
			has_country_modifier = undead_military
			adm_power = 300
			dip_power = 300
			mil_power = 300
		}
		
		effect = {
			add_adm_power = -300
			add_dip_power = -300
			add_mil_power = -300
			add_country_modifier = {
				name = elikhand_entef_savior
				duration = -1
			}
			custom_tooltip = entef_modifier
	    }
	}
	
	B38_yield_power = {
		icon = mission_delighted_mage
		required_missions = { B38_legacy_architect B38_save_masses }
		position = 13
		
		trigger = {
			has_legitimacy_equivalent = { VAL = 100 }
			custom_trigger_tooltip = {
				tooltip = elikhand_entef_true_power
				calc_true_if = {
					is_abjuration_3 = yes
					is_conjuration_3 = yes
					is_divination_3 = yes
					is_enchantment_3 = yes
					is_evocation_3 = yes
					is_illusion_3 = yes
					is_necromancy_3 = yes
					is_transmutation_3 = yes
					amount = 4
				}
			}
		}
		
		effect = {
			add_stability_or_adm_power = yes
			add_country_modifier = {
				name = elikhand_entef_mages
				duration = -1
			}
			custom_tooltip = entef_modifier
	    }
	}
	
	B38_empower_sarcophagus = {
		icon = mission_dark_ritual
		required_missions = { B38_yield_power }
		position = 14
		
		provinces_to_highlight = {
			province_id = 769
			OR = {
				NOT = { owned_by = ROOT }
				NOT = {
					has_great_project = {
						type = elikhander_pyramid
						tier = 3
					}
				}
				NOT = { development = 40 }
			}
			has_discovered = ROOT
		}
		
		trigger = {
			if = {
				limit = {
					has_dlc = "Leviathan"
				}
				769 = {
					owned_by = ROOT
					development = 40
					has_great_project = {
						type = elikhander_pyramid
						tier = 3
					}
				}
			}
			else = { 769 = { development = 50 } }
			adm_power = 100
			dip_power = 100
			mil_power = 100
		}
		
		effect = {
			add_adm_power = -100
			add_dip_power = -100
			add_mil_power = -100
			custom_tooltip = elikhand_sarcophagus
			set_country_flag = b38_entef_sarcophagus
	    }
	}
	
	B38_resurgent_leader = {
		icon = mission_crowning
		required_missions = { B38_empower_sarcophagus }
		position = 15
		
		provinces_to_highlight = {
			owner = {
				religion = dalcabba
				is_subject_of = B38
			}
			has_discovered = ROOT
		}
		
		trigger = {
			adm = 6
			dip = 6
			mil = 6
			university = 50
			calc_true_if = {
				all_subject_country = {  
					religion = dalcabba
					NOT = { liberty_desire = 50 }
				}
				amount = 3
			}
		}
		
		effect = {
			add_prestige = 20
			add_country_modifier = {
				name = elikhand_entef_resurgent
				duration = -1
			}
			custom_tooltip = entef_modifier
	    }
	}
}
