country_decisions = {
	temple_restoration = {
		major = yes
		potential = {
			temple_province_group = {
				owned_by = ROOT
				OR = {
					has_province_modifier = damaged_temple_complex
					has_province_modifier = derelict_temple_complex
				}
			}
			NOT = { has_country_flag = temple_restoration_menu_open }
		}
		
		provinces_to_highlight = {
			OR = {
				has_province_modifier = damaged_temple_complex
				has_province_modifier = derelict_temple_complex
			}
			owned_by = ROOT
		}
		
		allow = {
			any_owned_province = {
				OR = {
					has_province_modifier = damaged_temple_complex
					has_province_modifier = derelict_temple_complex
				}
				hidden_trigger = { NOT = { has_province_flag = temple_being_plundered } }
				is_core = ROOT
			}
			is_at_war = no
			adm_power = 25
			dip_power = 25
			mil_power = 25
			treasury = 100
			custom_trigger_tooltip = {
				tooltip = not_restoring_temple_tooltip
				NOT = { has_country_flag = currently_restoring_temple }
			}
		}
		
		effect = {
			country_event = { id = spirits.005 }
			hidden_effect = { set_country_flag = temple_restoration_menu_open }
		}
		
		ai_will_do = {
			factor = 400
			
			modifier = {
				factor = 0
				NOT = {
					capital_scope = { superregion = south_haless_superregion }
					capital_scope = { superregion = yanshen_superregion }
					capital_scope = { superregion = rahen_superregion }
					capital_scope = { superregion = north_haless_superregion }
				}
			}
			modifier = {
				factor = 0
				religion = lefthand_path
			}
		}
	}
	
	temple_corruption = {
		major = yes
		potential = {
			religion = lefthand_path
			OR = {
				AND = {
					NOT = { tag = Y01 }
					has_country_flag = lefthand_temple_secrets
				}
				AND = {
					tag = Y01
					mission_completed = Y01_way_forward
				}
			}
			NOT = { has_country_flag = temple_corruption_menu_open }
		}
		
		provinces_to_highlight = {
			OR = {
				has_province_modifier = temple_complex
				has_province_modifier = damaged_temple_complex
				has_province_modifier = derelict_temple_complex
			}
			owned_by = ROOT
		}
		
		allow = {
			any_owned_province = {
				OR = {
					has_province_modifier = temple_complex
					has_province_modifier = damaged_temple_complex
					has_province_modifier = derelict_temple_complex
				}
				is_core = ROOT
			}
			custom_trigger_tooltip = {
				tooltip = lhp_discovered_heart_tooltip
				any_owned_province = { has_province_modifier = temple_heart_discovered has_non_ruined_or_corrupted_temple_complex = yes }
			}
			is_at_war = no
			adm_power = 50
			dip_power = 50
			mil_power = 50
			church_power = 100
			if = {
				limit = {
					has_estate = estate_mages
				}
				estate_loyalty = {
					estate = estate_mages
					loyalty = 30
				}
			}
			else_if = {
				limit = {
					has_estate = estate_khelorvalshi
				}
				estate_loyalty = {
					estate = estate_khelorvalshi
					loyalty = 30
				}
			}
			custom_trigger_tooltip = {
				tooltip = not_corrupting_temple_tooltip
				any_owned_province = {
					OR = {
						NOT = { has_province_modifier = rite_of_corruption }
						NOT = { has_province_modifier = azjakuma_rite_of_corruption }
					}
				}
			}
			# NOT = { has_country_flag = currently_corrupting_temple }
		}
		
		effect = {
			country_event = { id = spirits.602 }
			hidden_effect = { set_country_flag = temple_corruption_menu_open }
		}
		
		ai_will_do = {
			factor = 1000
		}
	}
	
	temple_purification = {
		major = yes
		potential = {
			OR = {
				religion_group = halessi
				religion_group = raheni
			}
			NOT = { religion = lefthand_path }
			temple_province_group = {
				owned_by = ROOT
				has_province_modifier = corrupted_temple_complex
			}
		}
		
		provinces_to_highlight = {
			has_province_modifier = corrupted_temple_complex
			owned_by = ROOT
		}
		
		allow = {
			any_owned_province = {
				has_province_modifier = corrupted_temple_complex
				is_core = ROOT
			}
			is_at_war = no
			adm_power = 50
			dip_power = 50
			mil_power = 50
			if = {
				limit = { religion = righteous_path }
				church_power = 100
			}
			estate_loyalty = {
				estate = estate_mages
				loyalty = 30
			}
			custom_trigger_tooltip = {
				tooltip = not_purifying_temple_tooltip
				NOT = { has_country_flag = currently_purifying_temple }
			}
		}
		
		effect = {
			country_event = { id = spirits.007 }
			hidden_effect = { set_country_flag = temple_purification_menu_open }
		}
		
		ai_will_do = {
			factor = 1000
		}
	}
	
	plunder_the_temples = {
		major = yes
		potential = {
			temple_province_group = {
				owned_by = ROOT
				OR = {
					has_province_modifier = temple_complex
					has_province_modifier = damaged_temple_complex
					has_province_modifier = derelict_temple_complex
					has_province_modifier = corrupted_temple_complex
					has_province_modifier = ruined_temple_complex
				}
			}
			has_estate = estate_artificers
			has_global_flag = korashi_drill_invented_flag
			NOT = { religion = lefthand_path }
		}
		
		provinces_to_highlight = {
			OR = {
				has_province_modifier = temple_complex
				has_province_modifier = damaged_temple_complex
				has_province_modifier = derelict_temple_complex
				has_province_modifier = corrupted_temple_complex
				has_province_modifier = ruined_temple_complex
			}
			owned_by = ROOT
		}
		
		allow = {
			any_owned_province = {
				OR = {
					has_province_modifier = temple_complex
					has_province_modifier = damaged_temple_complex
					has_province_modifier = derelict_temple_complex
					has_province_modifier = corrupted_temple_complex
					has_province_modifier = ruined_temple_complex
				}
			}
			is_at_war = no
			treasury = 250
			adm_power = 50
			has_estate_privilege = artifice_invention_korashi_drills
		}
		
		effect = {
			country_event = { id = spirits.009 }
			hidden_effect = { set_country_flag = temple_plundering_menu_open }
		}
		
		ai_will_do = {
			factor = 100
			
			modifier = {
				factor = 0
				religion_group = raheni
			}
			
			modifier = {	#not sure if this even does anything, just want native AI to not immediately start plundering every temple the moment they can
				factor = 0.1
				religion_group = halessi
			}
			
			modifier = {
				factor = 30
				religion = mystic_accord
			}
		}
	}

	lhp_summon_spirit = {
		major = yes
		potential = {
			religion = lefthand_path
			any_owned_province = {
				has_active_triggered_province_modifier = corrupted_temple_complex
			}
			NOT = { has_country_flag = temple_summoning_menu_open }
		}
		
		allow = {
			NOT = { has_country_modifier = lhp_summon_cooldown }
			church_power = 15
		}

		effect = {
			country_event = {
				id = spirits.625
			}
			hidden_effect = { set_country_flag = temple_summoning_menu_open }
		}

		ai_will_do = { factor = 100 }
	}
}
