namespace = aw_vampires

#The Adventurers Wanted uses a strict ID system to make the system easier to author content for
#The IDs below 100 are core utility systems that are usually straight copies or modifications of how the AW system works, such as monsters being able to migrate and be defeated by adventurers.
#The IDs above 100 are more unique situations for the specific encounter, but they should correlate with the numbers from above: if ID 10s deal with migration, then ID 110s should be the unique events to do with migration - for example bribing a Thieves Guild to GTFO your country
#Crazy and more uniques ones that dont conform to the utilities should be ID 200

#USE THE anb_aw_vampires TO SEE A SIMPLE COPY-PASTABLE FORMAT IN ADDITION TO STUFF LIKE MIGRATION STYLES ETC
#Search for CHANGEABLE for the criteria you should change in that file and this one

#################################################################
# Welcome to the master file for the Adventurers Wanted System. In the comments below you'll see copy-pastable events for you to choose, different migration styles as well as prebuilt events to handle stuff like spawning rebellions
#################################################################

#0 - spawn in province
province_event = {
    id = aw_vampires.0
    title = aw_vampires.0.t
    desc = aw_vampires.0.d
    picture = COMET_SIGHTED_eventPicture
    goto = ROOT
    
    is_triggered_only = yes
    #hidden = yes
    
    #yup thats happening
    option = {
        name = aw_basic.0.a
        ai_chance = { 
            factor = 1 
        }
        add_permanent_province_modifier  = {
            name = aw_vampires_1
            duration = -1  
        }

        custom_tooltip = aw_how_to_get_more_adventurer_removal_chance_tooltip
    }
}


#1 - event manager, called by on_actions. This happens ONCE per pulse. If you have 7 of these, it still only fires the manager once
country_event = {
    id = aw_vampires.1
    title = aw_vampires.1.t
    desc = aw_vampires.1.d
    picture = COMET_SIGHTED_eventPicture
    
    hidden = yes
    is_triggered_only = yes
    
    trigger = {
        any_owned_province = {
            OR = { 
                has_province_modifier = aw_vampires_1
                has_province_modifier = aw_vampires_2
                has_province_modifier = aw_vampires_3
            }
        }
    }


    mean_time_to_happen = {
        days = 1
        modifier = {
            factor = 2
            num_of_owned_provinces_with = {
                value = 3
                OR = { 
                    has_province_modifier = aw_vampires_1
                    has_province_modifier = aw_vampires_2
                    has_province_modifier = aw_vampires_3
                }
            }
        }
    }

    immediate = {
        random_owned_province = {
            limit = {
                OR = { 
                    has_province_modifier = aw_vampires_1
                    has_province_modifier = aw_vampires_2
                    has_province_modifier = aw_vampires_3
                }
            }
            save_event_target_as = aw_vampires_target
        }
    }
    
	
	option = {
        event_target:aw_vampires_target = {
            random_list = {
                #10 - Base migration
				5 = {
					province_event = { id = aw_vampires.10 }
				}
                #13 - Base propagation
                5 = {
                    province_event = { id = aw_vampires.13 }
                }

                #15 - Migrate to non monstrous if monstrous nation is owner
                75 = {
                    modifier = {
                        #only want this to ever be part of the equation if you are monstrous
                        factor = 0
                        NOT = { owner = { has_country_modifier = monstrous_nation } }
                    }
                    province_event = { id = aw_vampires.15 }    #Migrate out of monstrous. high just so it jumps out of there sooner rather than later
                }

                #20 - natural removal
                7 = {
                    province_event = { id = aw_vampires.20 }    #Natural removal
                }

                #21 - adventurer removal
                10 = {
                    #Base modifiers

                    #more likely if generous quest rewards/adverturer nation
                    modifier = {
                        factor = 2
                        OR = {
                            owner = { has_estate_privilege = estate_adventurers_generous_quest_rewards }
                            owner = { has_adventurer_reform = yes }
                        }
                    }

                    #more likely if loyal
                    modifier = {
                        factor = 2
                        owner = {
                            estate_loyalty = {
                                estate = estate_adventurers
                                loyalty = 60
                            }
                        }
                    }

                    #more likely if high influence
                    modifier = {
                        factor = 2
                        owner = {
                            estate_influence = {
                                estate = estate_adventurers
                                influence = 60
                            }
                        }
                    }
                    #small influence boost at 30
                    modifier = {
                        factor = 1.5
                        owner = {
                            estate_influence = {
                                estate = estate_adventurers
                                influence = 30
                            }
                        }
                    }
                    #adventurer type sponsorships
                    modifier = {
                        factor = 2
                        owner = {
                            has_estate_privilege = estate_adventurers_sponsor_monster_hunters
                        }
                    }
                    #adventurer type sponsorships
                    modifier = {
                        factor = 1.5
                        owner = {
                            has_estate_privilege = estate_adventurers_sponsor_holy_paladins
                        }
                    }
                    province_event = { id = aw_vampires.21 }
                }

                #24 - monstrous nation removal
                20 = {
                    modifier = {
                        #only want this to ever be part of the equation if you are monstrous
                        factor = 0
                        NOT = { owner = { has_country_modifier = monstrous_nation } }
                    }
                    #Base modifiers
                    province_event = { id = aw_vampires.24 }
                }

                #30 - natural tier up
                10 = {
                    province_event = { id = aw_vampires.30 }   
                }

                #120 - Masquerade vampires hunt down breakers
                10 = {
                    modifier = {
                        factor = 0
                        NOT = {
                            has_estate = estate_vampires
                        }
                    }
					modifier = {
						factor = 1.5
						owner = {
							has_estate_privilege = estate_vampires_organization_ladys_birds
						}
					}
                    province_event = { id = aw_vampires.120 }   
                }

                #121 - Masquerade vampires exterminate frenzied
                10 = {
                    modifier = {
                        factor = 0
                        NOT = {
                            has_estate = estate_vampires
                        }
                    }
                    province_event = { id = aw_vampires.121 }   
                }

                #122 - Subjugating vampires if open rule
                10 = {
                    modifier = {
                        factor = 0
                        NOT = {
                            has_estate = estate_vampires
                        }
                    }
                    province_event = { id = aw_vampires.122 }   
                }

                #124 - Anathema Vampires join Vampires Estate (if you have vampire estate, vampires will be removed)
                5 = {
                    modifier = {
                        factor = 0
                        NOT = {
                            has_estate = estate_vampires
                        }
                    }
					modifier = {
						factor = 0.25
						owner = {
							has_estate_privilege = estate_vampires_neratic_inquisition
						}
					}
                    province_event = { id = aw_vampires.124 }   
                }

                #125 - Chaotic vampire fights vs adventurers, add devastation
                10 = {
                    province_event = { id = aw_vampires.125 }   
                }

                #126 - Clerics fuck em up
                5 = {
					modifier = {
						factor = 2
						owner = {
							has_estate_privilege = estate_vampires_neratic_inquisition
						}
					}
                    province_event = { id = aw_vampires.126 }
                }

                #127 - Blood Court offer services kill modifier to non-vamp estate holder
                5 = {
                    modifier = {
                        factor = 0
                        NOT = {
                            any_country = {
                                has_country_flag = founded_blood_court
                            }
                        }
                    }
                    modifier = {
                        factor = 3
                        has_province_modifier = aw_vampires_3
                        any_country = {
                            has_country_flag = founded_blood_court
                        }
                    }
					modifier = {
						factor = 0.5
						owner = {
							has_estate_privilege = estate_vampires_neratic_inquisition
						}
					}
                    province_event = { id = aw_vampires.127 }   
                }

                #140 - Offer emigre estate to country
                5 = {
                    #adventurer type sponsorships
                    modifier = {
                        factor = 3
                        owner = {
                            has_estate_privilege = estate_adventurers_sponsor_do_gooders
                        }
                    }
                    province_event = { id = aw_vampires.140 }   
                }

                #200 - Bloody massacre, -1 stability
                10 = {
                    province_event = { id = aw_vampires.200 }   
                }

                #201 - Noble seduced by vampire
                10 = {
                    province_event = { id = aw_vampires.201 }   
                }

                #202 - Faith Challenged by Vampires
                10 = {
                    province_event = { id = aw_vampires.202 }   
                }

                #203 - Vampires causing ruckus. devastation
                10 = {
                    province_event = { id = aw_vampires.203 }   
                }

                #204 - Vampires vs Werewolves, Vampires win
                1 = { 
                    modifier = {
                        factor = 50
                        OR = {
                            has_province_modifier = aw_werewolves_1
                            has_province_modifier = aw_werewolves_2
                            has_province_modifier = aw_werewolves_3
                        }
                    }
                    province_event = { id = aw_werewolves.204 } 
                }
            }
        }
	}
    
}


#2 - notification of advanturers wanted spawning

############## 10s - Migration and Propagation ###################

#10 - Base migration
province_event = {
    id = aw_vampires.10
    title = aw_vampires.10.t
    desc = aw_vampires.10.d
    picture = COMET_SIGHTED_eventPicture
    goto = ROOT
    
    hidden = no
    is_triggered_only = yes
    
    trigger = {
        OR = {
            has_province_modifier = aw_vampires_1
        }

        #MAKE SURE TO ADD A any_neighbor_province or relevant check - aka make sure that the immediate = { } effects can even occur before doing the event!
        any_neighbor_province = {
            is_city = yes
            owner = { NOT = { has_country_modifier = monstrous_nation } }

            NOT = { has_province_modifier = aw_vampires_1 }
            NOT = { has_province_modifier = aw_vampires_2 }
            NOT = { has_province_modifier = aw_vampires_3 }
        }
    }
    
    immediate = {
        hidden_effect = {

            ######################################################################
            #Here's a list of all migration types for you to copy and paste
            #Note: you may need to add something in the trigger = { } above, for example for random_neighbour_province, as you might want to check if this valid province even has a neighbour you can migrate to!
            ######################################################################

            #CHANGEABLE - MIGRATION TYPE - Any province within my region - dont do area as those are too small. its essentially adjacent anyway
            random_province = {
                limit = {
                    region = ROOT
                    NOT = { province_id = ROOT }

                    is_city = yes

                    NOT = { has_province_modifier = aw_vampires_1 }
                    NOT = { has_province_modifier = aw_vampires_2 }
                    NOT = { has_province_modifier = aw_vampires_3 }

                }
                save_event_target_as = aw_vampires_migration_target
            }
        }
    }

    #If migration is within country
    option = {  
        name = aw_vampires.10.a
        ai_chance = { factor = 100 }
        goto = aw_vampires_migration_target
        trigger = {
            event_target:aw_vampires_migration_target = {
                 owned_by = ROOT
            }
        }

        #It's migration, so remove modifier from previous province
        tooltip = { #this is fake. the real one happens below
            remove_province_modifier = aw_vampires_1
            remove_province_modifier = aw_vampires_2
            remove_province_modifier = aw_vampires_3
        }

        event_target:aw_vampires_migration_target = {
            if = {
                limit = {
                    owned_by = ROOT #you need this as this is only for provinces you own. option 10.b is for others
                }

                


                #CHANGEABLE - SPREAD TYPE: Tier makes Tier of the same at target
                if = {
                    limit = {
                        FROM = { has_province_modifier = aw_vampires_1 }
                    }
                    add_permanent_province_modifier = { 
                        name = aw_vampires_1
                        duration = -1
                    }
                }
                else_if = {
                    limit = {
                        FROM = { has_province_modifier = aw_vampires_2 }
                    }
                    add_permanent_province_modifier = { 
                        name = aw_vampires_2
                        duration = -1
                    }
                }
                else_if = {
                    limit = {
                        FROM = { has_province_modifier = aw_vampires_3 }
                    }
                    add_permanent_province_modifier = { 
                        name = aw_vampires_3
                        duration = -1
                    }
                }
                FROM = {
                #real removal. the other real one is in the called event in the else
                    remove_province_modifier = aw_vampires_1
                    remove_province_modifier = aw_vampires_2
                    remove_province_modifier = aw_vampires_3
                }
            }
        }
    }

    #If migration is sent to OTHER country
    option = {  
        name = aw_vampires.10.b
        ai_chance = { factor = 100 }
        goto = aw_vampires_migration_target
        trigger = {
            event_target:aw_vampires_migration_target = {
                NOT = { owned_by = ROOT }   #if the target isnt in your country, then send an event to them that notifies + adds it on their end
            }
        }

        #It's migration, so remove modifier from previous province
        tooltip = { #this is fake. the real one happens via the event
            remove_province_modifier = aw_vampires_1
            remove_province_modifier = aw_vampires_2
            remove_province_modifier = aw_vampires_3
        }

        custom_tooltip = aw_vampire_migrate_to_other_country_tt
		hidden_effect = {
			event_target:aw_vampires_migration_target = {
				province_event = {
					id = aw_vampires.11
				}
			}
		}
    }
}

#11 - migration target notification if it goes to other country
province_event = {
    id = aw_vampires.11
    title = aw_vampires.11.t
    desc = aw_vampires.11.d
    picture = COMET_SIGHTED_eventPicture
    goto = ROOT
    
    hidden = no
    is_triggered_only = yes
    
    option = {
        # deal with it ourselves
        name = aw_vampires.11.a
        ai_chance = { 
            factor = 20 
        }

        custom_tooltip = aw_how_to_get_more_adventurer_removal_chance_tooltip

        owner = {
            add_opinion = {
                who = FROM
                modifier = aw_crossed_border
            }
        }

        #CHANGEABLE - SPREAD TYPE: Tier makes Tier of the same at target ---(NOTE: THIS USUALLY SHOULD BE THE SAME AS id.10 above)----
        if = {
            limit = {
                FROM = { has_province_modifier = aw_vampires_1 }
            }
            add_permanent_province_modifier = { 
                name = aw_vampires_1
                duration = -1
            }
        }
        else_if = {
            limit = {
                FROM = { has_province_modifier = aw_vampires_2 }
            }
            add_permanent_province_modifier = { 
                name = aw_vampires_2
                duration = -1
            }
        }
        else_if = {
            limit = {
                FROM = { has_province_modifier = aw_vampires_3 }
            }
            add_permanent_province_modifier = { 
                name = aw_vampires_3
                duration = -1
            }
        }

    }

    after = {
        FROM = {    #cleanup event to remove the modifiers from the original province
            remove_province_modifier = aw_vampires_1
            remove_province_modifier = aw_vampires_2
            remove_province_modifier = aw_vampires_3
        }
    }
}

#13 - Base propagation - MODIFIED: this is thinbloods
province_event = {
    id = aw_vampires.13
    title = aw_vampires.13.t
    desc = aw_vampires.13.d
    picture = COMET_SIGHTED_eventPicture
    goto = ROOT
    
    hidden = no
    is_triggered_only = yes
    
    trigger = {
        OR = {
            has_province_modifier = aw_vampires_2
            has_province_modifier = aw_vampires_3
        }

        #MAKE SURE TO ADD A any_neighbor_province or relevant check - aka make sure that the immediate = { } effects can even occur before doing the event!
        any_neighbor_province = {
            is_city = yes
            owner = { NOT = { has_country_modifier = monstrous_nation } }

            NOT = { has_province_modifier = aw_vampires_1 }
            NOT = { has_province_modifier = aw_vampires_2 }
            NOT = { has_province_modifier = aw_vampires_3 }
        }
    }
    
    immediate = {
        hidden_effect = {

            #See .10 for full copy-pastable examples


            #CHANGEABLE - MIGRATION TYPE - Any province within my region - dont do area as those are too small. its essentially adjacent anyway
            random_province = {
                limit = {
                    region = ROOT
                    NOT = { province_id = ROOT }

                    is_city = yes

                    NOT = { has_province_modifier = aw_vampires_1 }
                    NOT = { has_province_modifier = aw_vampires_2 }
                    NOT = { has_province_modifier = aw_vampires_3 }

                }
                save_event_target_as = aw_vampires_migration_target
            }
        }
    }

    #If migration is within country
    option = {  
        name = aw_vampires.13.a
        ai_chance = { factor = 100 }
        goto = aw_vampires_migration_target
        trigger = {
            event_target:aw_vampires_migration_target = {
                owned_by = ROOT
            }
        }


        event_target:aw_vampires_migration_target = {
            if = {
                limit = {
                    owned_by = ROOT
                }

                add_permanent_province_modifier = { 
                    name = aw_vampires_1
                    duration = -1
                }
            }
        }
    }

    #If migration is sent to OTHER country
    option = {  
        name = aw_vampires.13.b
        ai_chance = { factor = 100 }
        goto = aw_vampires_migration_target
        trigger = {
            event_target:aw_vampires_migration_target = {
                NOT = { owned_by = ROOT }   #if the target isnt in your country, then send an event to them that notifies + adds it on their end
            }
        }

        custom_tooltip = aw_vampire_migrate_to_other_country_tt
		hidden_effect = {
			event_target:aw_vampires_migration_target = {
				province_event = {
					id = aw_vampires.14
				}
			}
		}
    }
}

#14 - propagation target notification
province_event = {
    id = aw_vampires.14
    title = aw_vampires.14.t
    desc = aw_vampires.14.d
    picture = COMET_SIGHTED_eventPicture
    goto = ROOT
    
    hidden = no
    is_triggered_only = yes
    
    option = {
        # deal with it ourselves
        name = aw_basic.0.a
        ai_chance = { 
            factor = 20 
        }

        custom_tooltip = aw_how_to_get_more_adventurer_removal_chance_tooltip

        owner = {
            add_opinion = {
                who = FROM
                modifier = aw_crossed_border
            }
        }

        #CHANGEABLE - SPREAD TYPE: Tier makes Tier of the same at target (NOTE: THIS USUALLY SHOULD BE THE SAME AS id.10 above)
        add_permanent_province_modifier = { 
            name = aw_vampires_1
            duration = -1
        }

    }

}

#15 - Migrate to non monstrous if monstrous nation is owner (if its applicable to monsters, like wyverns etc, then this is fine to remove, else keep)
province_event = {
    id = aw_vampires.15
    title = aw_vampires.15.t
    desc = aw_vampires.15.d
    picture = COMET_SIGHTED_eventPicture
    goto = ROOT
    
    hidden = no
    is_triggered_only = yes
    
    trigger = {
        owner = { has_country_modifier = monstrous_nation }
        OR = {
            has_province_modifier = aw_vampires_1
            has_province_modifier = aw_vampires_2
            has_province_modifier = aw_vampires_3
        }

        owner = {
            any_neighbor_country = {
                NOT = { has_country_modifier = monstrous_nation }
            }
        }
    }
    
    immediate = {
        hidden_effect = {

            #Special one for this event, targeting a neighbouring country that isnt monstrous and any of their owned events

            #CHANGABLE - edit Specific Conditions to make sure it moves to that kind of province! (e.g. if its a thieves guild it will move to a city province)

            owner = {
                random_neighbor_country = {
                    limit = {
                        NOT = { has_country_modifier = monstrous_nation }
                    }
                    random_owned_province = {
                        limit = {
                            #Base Conditions
                            NOT = { province_id = ROOT }
                            is_city = yes
    
                            NOT = { has_province_modifier = aw_vampires_1 }
                            NOT = { has_province_modifier = aw_vampires_2 }
                            NOT = { has_province_modifier = aw_vampires_3 }
    
    
                            #Specific Conditions
                           
                        }
                        save_event_target_as = aw_vampires_migration_target
                    }
                }
            }
        }
    }


    #If migration is sent to OTHER country
    option = {  
        name = aw_vampires.10.b
        ai_chance = { factor = 100 }
        goto = aw_vampires_migration_target
        trigger = {
            event_target:aw_vampires_migration_target = {
                NOT = { owned_by = ROOT }   #if the target isnt in your country, then send an event to them that notifies + adds it on their end
            }
        }

        #It's migration, so remove modifier from previous province
        tooltip = { #this is fake. the real one happens via the event
            remove_province_modifier = aw_vampires_1
            remove_province_modifier = aw_vampires_2
            remove_province_modifier = aw_vampires_3
        }

        custom_tooltip = aw_vampire_migrate_to_other_country_tt
		hidden_effect = {
			event_target:aw_vampires_migration_target = {
				province_event = {
					id = aw_vampires.11
				}
			}
		}
    }
}

############## 20s - Removal/Tier Down ###################

#20 - natural removal
province_event = {
    id = aw_vampires.20
    title = aw_vampires.20.t
    desc = aw_vampires.20.d
    picture = COMET_SIGHTED_eventPicture
    goto = ROOT
    
    hidden = no
    is_triggered_only = yes
    
    trigger = {
        OR = {
            has_province_modifier = aw_vampires_1
            has_province_modifier = aw_vampires_2
            has_province_modifier = aw_vampires_3
        }
    }
    
    option = {
 
        name = aw_vampires.20.a
        ai_chance = { factor = 100 }

        remove_province_modifier = aw_vampires_1
        remove_province_modifier = aw_vampires_2
        remove_province_modifier = aw_vampires_3

    }
}

#21 - adventurer removal
province_event = {
    id = aw_vampires.21
    title = aw_vampires.21.t
    desc = aw_vampires.21.d
    picture = COMET_SIGHTED_eventPicture
    goto = ROOT
    
    hidden = no
    is_triggered_only = yes
    
    trigger = {
        owner = { OR = { has_estate = estate_adventurers has_adventurer_reform = yes  } }
        OR = {
            has_province_modifier = aw_vampires_1
            has_province_modifier = aw_vampires_2
            has_province_modifier = aw_vampires_3
        }
    }
    
    option = {
        # oh, thank goodness
        name = aw_vampires.21.a
        ai_chance = { factor = 100 }

        remove_province_modifier = aw_vampires_1
        remove_province_modifier = aw_vampires_2
        remove_province_modifier = aw_vampires_3

        owner = {
            add_estate_influence_modifier = {
                estate = estate_adventurers
                desc = EST_VAL_AW_RESOLVED_ADVENTURERS_WANTED_ENCOUNTER
                duration = 3650
                influence = 5
            }
        }

        owner = { add_prestige_excess_to_splendour_effect = { VAL=10} }   #10 for hard, 5 for medium, 3 for weak

    }
}

#22 - natural tier down


#23 - adventurer tier down


#24 - monstrous nation removal
province_event = {
    id = aw_vampires.24
    title = aw_vampires.24.t
    desc = aw_vampires.24.d
    picture = COMET_SIGHTED_eventPicture
    goto = ROOT
    
    hidden = no
    is_triggered_only = yes
    
    trigger = {
        owner = { has_country_modifier = monstrous_nation }

        OR = {
            has_province_modifier = aw_vampires_1
            has_province_modifier = aw_vampires_2
            has_province_modifier = aw_vampires_3
        }
    }
    
    option = {
 
        name = aw_vampires.24.a
        ai_chance = { factor = 100 }

        remove_province_modifier = aw_vampires_1
        remove_province_modifier = aw_vampires_2
        remove_province_modifier = aw_vampires_3

        owner = { add_prestige_excess_to_splendour_effect = { VAL=10} }   #10 for hard, 5 for medium, 3 for weak

    }
}

#25 - monstrous natural tier down. keep if you want, or just rely on removal


############## 30s - Tier Up ###################

#30 - natural tier up - MODIFIED: only for 1 and 2. 3 is its own thing
province_event = {
    id = aw_vampires.30
    title = aw_vampires.30.t
    desc = aw_vampires.30.d
    picture = COMET_SIGHTED_eventPicture
    goto = ROOT
    
    hidden = no
    is_triggered_only = yes
    
    trigger = {
        OR = { 
            has_province_modifier = aw_vampires_1 
        }
    }
    option = {
        name = aw_vampires.30.a
        ai_chance = { factor = 100 }
        if = {
            limit = { 
                has_province_modifier = aw_vampires_1
            }
            remove_province_modifier = aw_vampires_1
            add_permanent_province_modifier  = {
                name = aw_vampires_2
                duration = -1  
            }
        }

        custom_tooltip = aw_how_to_get_more_adventurer_removal_chance_tooltip   #should be added for each increase of level
    }
}

############## 40s - Other Utility ###################


############## 100s - Special Spawn ###################

#100 - Broken masquerade, spawn frenzied vampires. Only during disaster
province_event = {
    id = aw_vampires.100
    title = aw_vampires.100.t
    desc = aw_vampires.100.d
    picture = COMET_SIGHTED_eventPicture
    goto = ROOT
    
    is_triggered_only = yes
    #hidden = yes

    trigger = {
        has_disaster = estate_vampires_broken_masquerade_disaster
    }
    
    #yup thats happening
    option = {
        name = aw_vampires.100.a
        ai_chance = { 
            factor = 1 
        }
        add_permanent_province_modifier  = {
            name = aw_vampires_3
            duration = -1  
        }

        custom_tooltip = aw_how_to_get_more_adventurer_removal_chance_tooltip
    }
}



############## 110s - Special Migration & Propagation ###################



############## 120s - Special Removal/Tier Down ###################

#120 - Masquerade vampires hunt down breakers
province_event = {
    id = aw_vampires.120
    title = aw_vampires.120.t
    desc = aw_vampires.120.d
    picture = IMPALED_SOLDIERS_eventPicture
    goto = ROOT
    
    hidden = no
    is_triggered_only = yes
    
    trigger = {
        OR = {
            has_province_modifier = aw_vampires_1
            has_province_modifier = aw_vampires_2
        }

        owner = { has_estate = estate_vampires }

        
    }
    
    option = {
 
        name = aw_vampires.120.a
        ai_chance = { factor = 100 }

        remove_province_modifier = aw_vampires_1
        remove_province_modifier = aw_vampires_2

    }
}

#121 - Masquerade vampires exterminate frenzied
province_event = {
    id = aw_vampires.121
    title = aw_vampires.121.t
    desc = aw_vampires.121.d
    picture = COMET_SIGHTED_eventPicture
    goto = ROOT
    
    hidden = no
    is_triggered_only = yes
    
    trigger = {
        OR = {
            has_province_modifier = aw_vampires_3
        }

        owner = { has_estate = estate_vampires }

        owner = { vampire_estate_follows_masquerade_privilege = yes }

        owner = {   #aka not weak
			NOT = {
				estate_influence = {
					estate = estate_vampires
					influence = 25
				}
			}
        }
    }
    
    option = {
 
        name = aw_vampires.121.a
        ai_chance = { factor = 100 }

        add_devastation = 10

        remove_province_modifier = aw_vampires_3

    }
}

#122 - Subjugating vampires if open rule
province_event = {
    id = aw_vampires.122
    title = aw_vampires.122.t
    desc = aw_vampires.122.d
    picture = COMET_SIGHTED_eventPicture
    goto = ROOT
    
    hidden = no
    is_triggered_only = yes
    
    trigger = {
        OR = {
            has_province_modifier = aw_vampires_1
            has_province_modifier = aw_vampires_2
            has_province_modifier = aw_vampires_3
        }

        owner = { has_estate = estate_vampires }

        OR = {
           #has_estate_privilege = estate_vampires_organization_vampires_lord
            has_estate_privilege = estate_vampires_law_open_rule
        }
    }
    
    option = {
 
        name = aw_vampires.122.a
        ai_chance = { factor = 100 }

        add_devastation = 25

        remove_province_modifier = aw_vampires_1
        remove_province_modifier = aw_vampires_2
        remove_province_modifier = aw_vampires_3

    }
}

#124 - Anathema Vampires join Vampires Estate (if you have vampire estate, vampires will be removed)
province_event = {
    id = aw_vampires.124
    title = aw_vampires.124.t
    desc = aw_vampires.124.d
    picture = COMET_SIGHTED_eventPicture
    goto = ROOT
    
    hidden = no
    is_triggered_only = yes
    
    trigger = {
        OR = {
            has_province_modifier = aw_vampires_1
            has_province_modifier = aw_vampires_2
        }

        owner = { has_estate = estate_vampires }

        owner = { vampire_estate_follows_masquerade_privilege = yes }

        owner = {   #aka not weak
			NOT = {
				estate_influence = {
					estate = estate_vampires
					influence = 25
				}
			}
        }
        owner = {   #loyal
            estate_influence = {
                estate = estate_vampires
                influence = 60
            }
        }
    }
    
    option = {
 
        name = aw_vampires.124.a
        ai_chance = { factor = 100 }

        remove_province_modifier = aw_vampires_1
        remove_province_modifier = aw_vampires_2

        owner = { add_prestige_excess_to_splendour_effect = { VAL=15} }

    }
}

#125 - Chaotic vampire fights vs adventurers, add devastation
province_event = {
    id = aw_vampires.125
    title = aw_vampires.125.t
    desc = aw_vampires.125.d
    picture = COMET_SIGHTED_eventPicture
    goto = ROOT
    
    hidden = no
    is_triggered_only = yes
    
    trigger = {
        OR = {
            has_province_modifier = aw_vampires_2
            has_province_modifier = aw_vampires_3
        }

        owner = { OR = { has_estate = estate_adventurers has_adventurer_reform = yes  } }

        NOT = { devastation = 50}
    }
    
    option = {
 
        name = aw_vampires.200.a
        ai_chance = { factor = 100 }

        add_devastation = 50

        if = {
            limit = {
                owner = { has_estate = estate_vampires }

                owner = { vampire_estate_follows_masquerade_privilege = yes }
            }
            owner = {
                add_estate_influence_modifier = {
                    estate = estate_vampires
                    desc = EST_VAL_AW_VAMPIRES_ROGUE_VAMPIRES_WEAKEN_THE_MASQUERADE
                    duration = 3650
                    influence = -5
                }
            }
        }
    }
}

#126 - Clerics fuck em up
province_event = {
    id = aw_vampires.126
    title = aw_vampires.126.t
    desc = aw_vampires.126.d
    picture = COMET_SIGHTED_eventPicture
    goto = ROOT
    
    hidden = no
    is_triggered_only = yes
    
    trigger = {
        OR = {
            has_province_modifier = aw_vampires_1
            has_province_modifier = aw_vampires_2
            has_province_modifier = aw_vampires_3
        }

        owner = { has_estate = estate_church }

        NOT = {
            owner = {
                has_estate_influence_modifier = {
                    estate = estate_church
                    modifier = EST_VAL_HOLY_WORK_AGAINST_MONSTERS
                }
            }
        }
    }
    
    option = {
 
        name = aw_vampires.126.a
        ai_chance = { factor = 100 }

        owner = {
            add_estate_influence_modifier = {
                estate = estate_church
                desc = EST_VAL_HOLY_WORK_AGAINST_MONSTERS
                duration = 3650
                influence = 10
            }
        }

        remove_province_modifier = aw_vampires_1
        remove_province_modifier = aw_vampires_2
        remove_province_modifier = aw_vampires_3

        if = {
            limit = {
                owner = { has_estate = estate_vampires }

                owner = { vampire_estate_follows_masquerade_privilege = yes }
            }
            owner = {
                add_estate_influence_modifier = {
                    estate = estate_vampires
                    desc = EST_VAL_AW_VAMPIRES_ROGUE_VAMPIRES_WEAKEN_THE_MASQUERADE
                    duration = 3650
                    influence = -5
                }
            }
        }
    }
}

#127 - Blood Court offer services kill modifier to non-vamp estate holder
province_event = {
    id = aw_vampires.127
    title = aw_vampires.127.t
    desc = aw_vampires.127.d
    picture = COMET_SIGHTED_eventPicture
    goto = ROOT
    
    hidden = no
    is_triggered_only = yes
    
    trigger = {
        OR = {
            has_province_modifier = aw_vampires_1
            has_province_modifier = aw_vampires_2
            has_province_modifier = aw_vampires_3
        }

        NOT = { owner = { has_estate = estate_vampires } }

        owner = { vampire_estate_follows_masquerade_privilege = yes }

        any_country = {
            has_country_flag = founded_blood_court
        }
    }

    immediate = {
        random_country = {
            limit = { has_country_flag = founded_blood_court }
            save_event_target_as = aw_vampires_blood_court_founder
        }
    }
    
    #accept help
    option = {
 
        name = aw_vampires.127.a
        ai_chance = { factor = 100 }

        remove_province_modifier = aw_vampires_1
        remove_province_modifier = aw_vampires_2
        remove_province_modifier = aw_vampires_3

        hidden_effect = {
            event_target:aw_vampires_blood_court_founder = {
                country_event = { id = aw_vampires.128 }
            }
        }

    }

    #we can handle this ourselves
    option = {
 
        name = aw_vampires.127.b
        ai_chance = { factor = 100 }

        owner = { add_prestige_excess_to_splendour_effect = { VAL=5} }

    }
}

#128 - Notification for Blood Court owner that they've killed some vampires in another country
country_event = {
    id = aw_vampires.128
    title = aw_vampires.128.t
    desc = aw_vampires.128.d
    picture = COMET_SIGHTED_eventPicture
    
    hidden = no
    is_triggered_only = yes
    
    option = {
        name = aw_vampires.128.a
        ai_chance = { factor = 100 }
        goto = FROM

        owner = { add_prestige_excess_to_splendour_effect = { VAL=5 } }

    }
}


############## 130s - Special Tier Up ###################


############## 140s - Other Special Utility ###################

#140 - Offer emigre estate to country
province_event = {
    id = aw_vampires.140
    title = aw_vampires.140.t
    desc = aw_vampires.140.d
    picture = DIPLOMACY_eventPicture
    goto = ROOT
    
    hidden = no
    is_triggered_only = yes
    
    trigger = {
        OR = {
            has_province_modifier = aw_vampires_1
            has_province_modifier = aw_vampires_2
        }

        owner = { stability = 1 }

        NOT = { has_estate = estate_vampires }
    }
    
    #sure
    option = {
 
        name = aw_vampires.140.a
        ai_chance = { 
			factor = 100
			modifier = {
				factor = 0.1
				owner = {
					NOT = { culture_is_human = yes }
				}
			}
		}

        owner = { add_stability = -1 }

        hidden_effect = { 
            owner = { set_country_flag = has_vampires_estate }
            owner = { country_event = { id = vampires_estate_events.12 days = 2 } } 
        }

        custom_tooltip = estate_vampies_gain_tooltip

        # owner = {
        #     every_owned_province = {
        #         limit = {
        #             OR = {
        #                 has_province_modifier = aw_vampires_1
        #                 has_province_modifier = aw_vampires_2
        #             }
        #         }
        #         remove_province_modifier = aw_vampires_1
        #         remove_province_modifier = aw_vampires_2
        #     }
        # }
    }

    #no
    option = {
 
        name = aw_vampires.140.b
        ai_chance = { factor = 100 }

        owner = { add_prestige = 10 }

        random = {
            chance = 50
            remove_province_modifier = aw_vampires_1
            remove_province_modifier = aw_vampires_1
        }

        # owner = {
        #     every_owned_province = {
        #         limit = {
        #             OR = {
        #                 has_province_modifier = aw_vampires_1
        #                 has_province_modifier = aw_vampires_2
        #             }
        #         }
        #         remove_province_modifier = aw_vampires_1
        #         remove_province_modifier = aw_vampires_2
        #     }
        # }
    }
}

#141 - Spawn more vampire rebels from frenzied during Broken Masquerade disaster. Triggered by the disaster rather than the event manager here
country_event = {
    id = aw_vampires.141
    title = aw_vampires.141.t
    desc = aw_vampires.141.d
    picture = COMET_SIGHTED_eventPicture

    
    hidden = no
    is_triggered_only = yes
    
    trigger = {
        ROOT = {
            has_disaster = estate_vampires_broken_masquerade_disaster
            calc_true_if = {
				all_owned_province = {
					has_province_modifier = aw_vampires_3
				}
				amount = 1
			}
        }
        
    }
    mean_time_to_happen = {
        days = 1
        modifier = {
            factor = 1.25
            ROOT = {
                NOT = {
                    has_country_flag = wipe_vampire_out
                }
            }
        }
    }

    immediate = {
        random_owned_province = {
            limit = {
                has_province_modifier = aw_vampires_3
            }
            save_event_target_as = aw_vampires_target
        }
    }
    
    option = {
 
        name = aw_vampires.141.a
        ai_chance = { factor = 100 }

        event_target:aw_vampires_target = {
            spawn_rebels = {
                type = vampires_nobles
                size = 1
            }

            if = {
                limit = { 
                    has_province_modifier = aw_vampires_3 
                }
                remove_province_modifier = aw_vampires_3
                add_permanent_province_modifier  = {
                    name = aw_vampires_2
                    duration = -1  
                }
            }
        }

    }
}



############## 200s - Special Flavour ###################

#200 - Bloody massacre, -1 stability
province_event = {
    id = aw_vampires.200
    title = aw_vampires.200.t
    desc = aw_vampires.200.d
    picture = PLAGUE_eventPicture
    goto = ROOT
    
    hidden = no
    is_triggered_only = yes
    
    trigger = {
        OR = {
            has_province_modifier = aw_vampires_2
            has_province_modifier = aw_vampires_3
        }

        stability = -2
    }
    
    option = {
        name = aw_vampires.200.a
        ai_chance = { factor = 100 }

        owner = { add_stability = -1 }

        if = {
            limit = {
                owner = { has_estate = estate_vampires }

                owner = { vampire_estate_follows_masquerade_privilege = yes }
            }
            owner = {
                add_estate_influence_modifier = {
                    estate = estate_vampires
                    desc = EST_VAL_AW_VAMPIRES_ROGUE_VAMPIRES_WEAKEN_THE_MASQUERADE
                    duration = 3650
                    influence = -5
                }
            }
        }
    }
}

#201 - Noble seduced by vampire
province_event = {
    id = aw_vampires.201
    title = aw_vampires.201.t
    desc = aw_vampires.201.d
    picture = NOBLE_ESTATE_DEMANDS_eventPicture
    goto = ROOT
    
    hidden = no
    is_triggered_only = yes
    
    trigger = {
        OR = {
            has_province_modifier = aw_vampires_1
            has_province_modifier = aw_vampires_2
        }

        owner = {
            NOT = {
                has_estate_loyalty_modifier = {
                    estate = estate_nobles
                    modifier = EST_VAL_AW_VAMPIRES_NOBLE_SEDUCED_BY_VAMPIRE
                }
            }
     }
    }
    
    option = {
        name = aw_vampires.201.a
        ai_chance = { factor = 100 }

        owner = {
            add_estate_loyalty_modifier = {
                estate = estate_nobles
                desc = EST_VAL_AW_VAMPIRES_NOBLE_SEDUCED_BY_VAMPIRE
                duration = 3650
                loyalty = -10
            }
        }

        if = {
            limit = {
                owner = { has_estate = estate_vampires }

                owner = { vampire_estate_follows_masquerade_privilege = yes }
            }
            owner = {
                add_estate_influence_modifier = {
                    estate = estate_vampires
                    desc = EST_VAL_AW_VAMPIRES_ROGUE_VAMPIRES_WEAKEN_THE_MASQUERADE
                    duration = 3650
                    influence = -5
                }
            }
        }
    }
}


#202 - Faith Challenged by Vampires
province_event = {
    id = aw_vampires.202
    title = aw_vampires.202.t
    desc = aw_vampires.202.d
    picture = COMET_SIGHTED_eventPicture
    goto = ROOT
    
    hidden = no
    is_triggered_only = yes
    
    trigger = {
        OR = {
            has_province_modifier = aw_vampires_2
        }

        owner = { has_estate = estate_church }

        owner = {
            NOT = {
                has_estate_influence_modifier = {
                    estate = estate_church
                    modifier = EST_VAL_AW_VAMPIRES_CHALLENGE_FAITH
                }
            }
        }

        owner = {
            NOT = {
                has_estate_influence_modifier = {
                    estate = estate_vampires
                    modifier = EST_VAL_AW_VAMPIRES_SUPPORTED_AGAINST_FRIVOLOUS_RELIGION
                }
            }
        }
    }
    
    option = {
        name = aw_vampires.200.a
        ai_chance = { factor = 100 }

        owner = { add_prestige = -10 }

        owner = {
            add_estate_influence_modifier = {
                estate = estate_vampires
                desc = EST_VAL_AW_VAMPIRES_ROGUE_VAMPIRES_WEAKEN_THE_MASQUERADE
                duration = 3650
                influence = -5
            }
        }
    }

    option = {
 
        name = aw_vampires.200.a
        ai_chance = { factor = 100 }

        trigger = { owner = { has_estate = estate_vampires} }


        owner = { add_prestige = -5 }


        owner = {
            add_estate_loyalty_modifier = {
                estate = estate_vampires
                desc = EST_VAL_AW_VAMPIRES_REPRIMANDED_FOR_CLERGY_INSULT
                duration = 3650
                loyalty = -5
            }
        }
    }
}

#203 - Vampires causing ruckus. devastation
province_event = {
    id = aw_vampires.203
    title = aw_vampires.203.t
    desc = aw_vampires.203.d
    picture = COMET_SIGHTED_eventPicture
    goto = ROOT
    
    hidden = no
    is_triggered_only = yes
    
    trigger = {
        OR = {
            has_province_modifier = aw_vampires_2
            has_province_modifier = aw_vampires_3
        }

        NOT = { devastation = 25 }
    }
    
    option = {
        name = aw_vampires.203.a
        ai_chance = { factor = 100 }
        trigger = {
            NOT = { owner = { has_estate = estate_vampires } }
        }

        add_devastation = 25
    }

    #Where is their sire? fuckin thinbloods
    option = {
        name = aw_vampires.203.b
        ai_chance = { factor = 100 }
        trigger = { 
            owner = { has_estate = estate_vampires }

            owner = { vampire_estate_follows_masquerade_privilege = yes }
        }

        add_devastation = 25

        owner = {
            add_estate_influence_modifier = {
                estate = estate_vampires
                desc = EST_VAL_AW_VAMPIRES_ROGUE_VAMPIRES_WEAKEN_THE_MASQUERADE
                duration = 3650
                influence = -5
            }
        }
    }
}

#204 - Vampires vs Werewolves, Vampires win
province_event = {
    id = aw_vampires.204
    title = aw_vampires.204.t
    desc = aw_vampires.204.d
    picture = IMPALED_SOLDIERS_eventPicture
    goto = ROOT
    
    hidden = no
    is_triggered_only = yes
    
    trigger = {
        AND = {
            OR = {
                has_province_modifier = aw_vampires_1
                has_province_modifier = aw_vampires_2
                has_province_modifier = aw_vampires_3
            }

            OR = {
                has_province_modifier = aw_werewolves_1
                has_province_modifier = aw_werewolves_2
                has_province_modifier = aw_werewolves_3
            }
        }

        NOT = { devastation = 50 }
    }
    
    option = {
        name = aw_vampires.203.a
        ai_chance = { factor = 100 }

        remove_province_modifier = aw_werewolves_1
        remove_province_modifier = aw_werewolves_2
        remove_province_modifier = aw_werewolves_3

        add_devastation = 75

    }
}